simulation/qsim/MIC1.msim.vcd
$comment
	File created using the following command:
		vcd file MIC1.msim.vcd -direction
$end
$date
	Fri Jul 12 19:41:17 2024
$end
$version
	ModelSim Version 10.1d
$end
$timescale
	1ps
$end
$scope module ula_32bit_vlg_vec_tst $end
$var reg 32 ! A [31:0] $end
$var reg 32 " B [31:0] $end
$var reg 6 # F [5:0] $end
$var reg 1 $ SLL8 $end
$var reg 1 % SRA1 $end
$var wire 1 & C [31] $end
$var wire 1 ' C [30] $end
$var wire 1 ( C [29] $end
$var wire 1 ) C [28] $end
$var wire 1 * C [27] $end
$var wire 1 + C [26] $end
$var wire 1 , C [25] $end
$var wire 1 - C [24] $end
$var wire 1 . C [23] $end
$var wire 1 / C [22] $end
$var wire 1 0 C [21] $end
$var wire 1 1 C [20] $end
$var wire 1 2 C [19] $end
$var wire 1 3 C [18] $end
$var wire 1 4 C [17] $end
$var wire 1 5 C [16] $end
$var wire 1 6 C [15] $end
$var wire 1 7 C [14] $end
$var wire 1 8 C [13] $end
$var wire 1 9 C [12] $end
$var wire 1 : C [11] $end
$var wire 1 ; C [10] $end
$var wire 1 < C [9] $end
$var wire 1 = C [8] $end
$var wire 1 > C [7] $end
$var wire 1 ? C [6] $end
$var wire 1 @ C [5] $end
$var wire 1 A C [4] $end
$var wire 1 B C [3] $end
$var wire 1 C C [2] $end
$var wire 1 D C [1] $end
$var wire 1 E C [0] $end
$var wire 1 F COUT $end
$var wire 1 G N $end
$var wire 1 H S [31] $end
$var wire 1 I S [30] $end
$var wire 1 J S [29] $end
$var wire 1 K S [28] $end
$var wire 1 L S [27] $end
$var wire 1 M S [26] $end
$var wire 1 N S [25] $end
$var wire 1 O S [24] $end
$var wire 1 P S [23] $end
$var wire 1 Q S [22] $end
$var wire 1 R S [21] $end
$var wire 1 S S [20] $end
$var wire 1 T S [19] $end
$var wire 1 U S [18] $end
$var wire 1 V S [17] $end
$var wire 1 W S [16] $end
$var wire 1 X S [15] $end
$var wire 1 Y S [14] $end
$var wire 1 Z S [13] $end
$var wire 1 [ S [12] $end
$var wire 1 \ S [11] $end
$var wire 1 ] S [10] $end
$var wire 1 ^ S [9] $end
$var wire 1 _ S [8] $end
$var wire 1 ` S [7] $end
$var wire 1 a S [6] $end
$var wire 1 b S [5] $end
$var wire 1 c S [4] $end
$var wire 1 d S [3] $end
$var wire 1 e S [2] $end
$var wire 1 f S [1] $end
$var wire 1 g S [0] $end
$var wire 1 h Z $end
$var wire 1 i sampler $end
$scope module i1 $end
$var wire 1 j gnd $end
$var wire 1 k vcc $end
$var wire 1 l unknown $end
$var tri1 1 m devclrn $end
$var tri1 1 n devpor $end
$var tri1 1 o devoe $end
$var wire 1 p inst4|inst2|inst2~combout $end
$var wire 1 q inst4|inst7|inst2~combout $end
$var wire 1 r inst4|inst6|inst10|inst3~0_combout $end
$var wire 1 s inst3|inst3|inst~combout $end
$var wire 1 t inst3|inst|inst~combout $end
$var wire 1 u inst3|inst5|inst~combout $end
$var wire 1 v inst2|inst4|inst10|inst2~combout $end
$var wire 1 w inst2|inst7|inst2~combout $end
$var wire 1 x inst2|inst5|inst~combout $end
$var wire 1 y inst2|inst6|inst~combout $end
$var wire 1 z inst|inst4|inst10|inst3~0_combout $end
$var wire 1 { inst|inst2|inst~combout $end
$var wire 1 | inst|inst8|inst2~combout $end
$var wire 1 } inst|inst7|inst10|inst4~5_combout $end
$var wire 1 ~ inst3|inst8|inst10|inst3~0_combout $end
$var wire 1 !! inst3|inst8|inst10|inst3~1_combout $end
$var wire 1 "! inst3|inst|inst10|inst4~combout $end
$var wire 1 #! inst3|inst2|inst10|inst4~combout $end
$var wire 1 $! inst3|inst8|inst~combout $end
$var wire 1 %! inst|inst4|inst10|inst3~combout $end
$var wire 1 &! inst|inst4|inst10|inst4~combout $end
$var wire 1 '! inst9~0_combout $end
$var wire 1 (! inst9~1_combout $end
$var wire 1 )! inst9~2_combout $end
$var wire 1 *! inst9~3_combout $end
$var wire 1 +! inst9~4_combout $end
$var wire 1 ,! inst9~5_combout $end
$var wire 1 -! inst9~6_combout $end
$var wire 1 .! inst9~7_combout $end
$var wire 1 /! inst|inst7|inst6|inst2~0_combout $end
$var wire 1 0! inst4|inst2|inst~combout $end
$var wire 1 1! inst4|inst|inst2~combout $end
$var wire 1 2! inst4|inst|inst~combout $end
$var wire 1 3! inst4|inst|inst10|inst4~combout $end
$var wire 1 4! inst4|inst2|inst10|inst4~combout $end
$var wire 1 5! inst4|inst4|inst~combout $end
$var wire 1 6! inst4|inst4|inst2~combout $end
$var wire 1 7! inst4|inst4|inst10|inst4~combout $end
$var wire 1 8! inst4|inst3|inst2~combout $end
$var wire 1 9! inst4|inst3|inst~combout $end
$var wire 1 :! inst4|inst3|inst10|inst4~combout $end
$var wire 1 ;! inst4|inst3|inst8~0_combout $end
$var wire 1 <! inst4|inst3|inst10|inst~combout $end
$var wire 1 =! inst4|inst3|inst8~1_combout $end
$var wire 1 >! inst4|inst4|inst10|inst~combout $end
$var wire 1 ?! inst4|inst4|inst8~0_combout $end
$var wire 1 @! inst4|inst4|inst8~1_combout $end
$var wire 1 A! inst4|inst2|inst10|inst~combout $end
$var wire 1 B! inst4|inst2|inst8~0_combout $end
$var wire 1 C! inst4|inst2|inst8~1_combout $end
$var wire 1 D! inst4|inst7|inst~combout $end
$var wire 1 E! inst4|inst8|inst~combout $end
$var wire 1 F! inst4|inst5|inst2~combout $end
$var wire 1 G! inst4|inst5|inst10|inst3~0_combout $end
$var wire 1 H! inst3|inst4|inst2~combout $end
$var wire 1 I! inst3|inst4|inst~combout $end
$var wire 1 J! inst3|inst4|inst10|inst4~combout $end
$var wire 1 K! inst3|inst3|inst3~combout $end
$var wire 1 L! inst3|inst3|inst10|inst3~0_combout $end
$var wire 1 M! inst3|inst3|inst10|inst2~combout $end
$var wire 1 N! inst4|inst6|inst10|inst3~combout $end
$var wire 1 O! inst4|inst5|inst10|inst2~combout $end
$var wire 1 P! inst4|inst5|inst10|inst4~combout $end
$var wire 1 Q! inst4|inst8|inst10|inst4~combout $end
$var wire 1 R! inst4|inst7|inst10|inst4~combout $end
$var wire 1 S! inst4|inst|inst8~0_combout $end
$var wire 1 T! inst4|inst|inst10|inst~combout $end
$var wire 1 U! inst4|inst|inst8~1_combout $end
$var wire 1 V! inst4|inst7|inst8~0_combout $end
$var wire 1 W! inst4|inst7|inst10|inst5~combout $end
$var wire 1 X! inst4|inst7|inst8~1_combout $end
$var wire 1 Y! inst4|inst8|inst2~combout $end
$var wire 1 Z! inst4|inst8|inst8~0_combout $end
$var wire 1 [! inst4|inst8|inst10|inst~combout $end
$var wire 1 \! inst4|inst8|inst8~1_combout $end
$var wire 1 ]! inst4|inst5|inst~combout $end
$var wire 1 ^! inst4|inst5|inst8~0_combout $end
$var wire 1 _! inst4|inst6|inst2~combout $end
$var wire 1 `! inst4|inst6|inst10|inst2~combout $end
$var wire 1 a! inst4|inst6|inst10|inst4~combout $end
$var wire 1 b! inst4|inst5|inst10|inst5~combout $end
$var wire 1 c! inst4|inst5|inst8~1_combout $end
$var wire 1 d! inst4|inst6|inst~combout $end
$var wire 1 e! inst4|inst6|inst8~0_combout $end
$var wire 1 f! inst4|inst6|inst10|inst~combout $end
$var wire 1 g! inst3|inst3|inst10|inst4~combout $end
$var wire 1 h! inst4|inst6|inst8~1_combout $end
$var wire 1 i! inst3|inst3|inst2~combout $end
$var wire 1 j! inst3|inst3|inst10|inst~combout $end
$var wire 1 k! inst3|inst3|inst8~0_combout $end
$var wire 1 l! inst3|inst3|inst8~1_combout $end
$var wire 1 m! inst3|inst4|inst8~0_combout $end
$var wire 1 n! inst3|inst4|inst10|inst5~combout $end
$var wire 1 o! inst3|inst4|inst8~1_combout $end
$var wire 1 p! inst3|inst2|inst~combout $end
$var wire 1 q! inst3|inst2|inst2~combout $end
$var wire 1 r! inst3|inst2|inst8~0_combout $end
$var wire 1 s! inst3|inst2|inst10|inst5~combout $end
$var wire 1 t! inst3|inst2|inst8~1_combout $end
$var wire 1 u! inst3|inst|inst2~combout $end
$var wire 1 v! inst3|inst|inst8~0_combout $end
$var wire 1 w! inst3|inst7|inst10|inst4~0_combout $end
$var wire 1 x! inst3|inst7|inst2~combout $end
$var wire 1 y! inst3|inst7|inst~combout $end
$var wire 1 z! inst3|inst7|inst10|inst4~1_combout $end
$var wire 1 {! inst3|inst7|inst10|inst4~2_combout $end
$var wire 1 |! inst3|inst|inst10|inst5~combout $end
$var wire 1 }! inst3|inst|inst8~1_combout $end
$var wire 1 ~! inst3|inst6|inst~combout $end
$var wire 1 !" inst2|inst3|inst~combout $end
$var wire 1 "" inst2|inst3|inst2~combout $end
$var wire 1 #" inst2|inst4|inst2~combout $end
$var wire 1 $" inst2|inst4|inst10|inst3~0_combout $end
$var wire 1 %" inst2|inst2|inst2~combout $end
$var wire 1 &" inst2|inst2|inst10|inst2~combout $end
$var wire 1 '" inst2|inst8|inst~combout $end
$var wire 1 (" inst2|inst5|inst2~combout $end
$var wire 1 )" inst2|inst6|inst2~combout $end
$var wire 1 *" inst|inst3|inst~combout $end
$var wire 1 +" inst|inst3|inst2~combout $end
$var wire 1 ," inst|inst4|inst10|inst2~combout $end
$var wire 1 -" inst|inst2|inst3~combout $end
$var wire 1 ." inst|inst2|inst10|inst3~0_combout $end
$var wire 1 /" inst|inst2|inst10|inst2~combout $end
$var wire 1 0" inst|inst|inst~combout $end
$var wire 1 1" inst|inst|inst2~combout $end
$var wire 1 2" inst|inst|inst10|inst4~combout $end
$var wire 1 3" inst|inst3|inst10|inst4~0_combout $end
$var wire 1 4" inst|inst3|inst10|inst4~1_combout $end
$var wire 1 5" inst|inst3|inst10|inst4~2_combout $end
$var wire 1 6" inst2|inst6|inst10|inst4~combout $end
$var wire 1 7" inst2|inst5|inst10|inst4~combout $end
$var wire 1 8" inst2|inst8|inst2~combout $end
$var wire 1 9" inst2|inst8|inst10|inst4~combout $end
$var wire 1 :" inst2|inst7|inst~combout $end
$var wire 1 ;" inst2|inst7|inst10|inst4~combout $end
$var wire 1 <" inst2|inst2|inst10|inst3~3_combout $end
$var wire 1 =" inst2|inst2|inst10|inst3~2_combout $end
$var wire 1 >" inst2|inst2|inst10|inst3~4_combout $end
$var wire 1 ?" inst2|inst4|inst10|inst4~combout $end
$var wire 1 @" inst2|inst3|inst10|inst4~combout $end
$var wire 1 A" inst3|inst6|inst2~combout $end
$var wire 1 B" inst3|inst6|inst10|inst4~combout $end
$var wire 1 C" inst3|inst5|inst2~combout $end
$var wire 1 D" inst3|inst5|inst10|inst4~combout $end
$var wire 1 E" inst3|inst8|inst2~combout $end
$var wire 1 F" inst3|inst8|inst10|inst4~combout $end
$var wire 1 G" inst3|inst7|inst10|inst~combout $end
$var wire 1 H" inst3|inst7|inst8~0_combout $end
$var wire 1 I" inst3|inst7|inst8~1_combout $end
$var wire 1 J" inst3|inst8|inst10|inst~combout $end
$var wire 1 K" inst3|inst8|inst8~0_combout $end
$var wire 1 L" inst3|inst8|inst8~1_combout $end
$var wire 1 M" inst3|inst5|inst10|inst~combout $end
$var wire 1 N" inst3|inst5|inst8~0_combout $end
$var wire 1 O" inst3|inst5|inst8~1_combout $end
$var wire 1 P" inst3|inst6|inst10|inst~combout $end
$var wire 1 Q" inst3|inst6|inst8~0_combout $end
$var wire 1 R" inst3|inst6|inst8~1_combout $end
$var wire 1 S" inst2|inst3|inst8~0_combout $end
$var wire 1 T" inst2|inst3|inst10|inst5~combout $end
$var wire 1 U" inst2|inst3|inst8~1_combout $end
$var wire 1 V" inst2|inst2|inst10|inst4~combout $end
$var wire 1 W" inst2|inst4|inst~combout $end
$var wire 1 X" inst2|inst4|inst10|inst~combout $end
$var wire 1 Y" inst2|inst4|inst8~0_combout $end
$var wire 1 Z" inst2|inst4|inst8~1_combout $end
$var wire 1 [" inst2|inst2|inst~combout $end
$var wire 1 \" inst2|inst2|inst8~0_combout $end
$var wire 1 ]" inst2|inst2|inst10|inst~combout $end
$var wire 1 ^" inst2|inst|inst~combout $end
$var wire 1 _" inst2|inst|inst10|inst4~combout $end
$var wire 1 `" inst2|inst2|inst8~1_combout $end
$var wire 1 a" inst2|inst|inst10|inst~combout $end
$var wire 1 b" inst2|inst|inst2~combout $end
$var wire 1 c" inst2|inst|inst8~0_combout $end
$var wire 1 d" inst2|inst|inst8~1_combout $end
$var wire 1 e" inst2|inst7|inst10|inst~combout $end
$var wire 1 f" inst2|inst7|inst8~0_combout $end
$var wire 1 g" inst2|inst7|inst8~1_combout $end
$var wire 1 h" inst2|inst8|inst10|inst5~combout $end
$var wire 1 i" inst2|inst8|inst8~0_combout $end
$var wire 1 j" inst2|inst8|inst8~1_combout $end
$var wire 1 k" inst2|inst5|inst10|inst~combout $end
$var wire 1 l" inst2|inst5|inst8~0_combout $end
$var wire 1 m" inst2|inst5|inst8~1_combout $end
$var wire 1 n" inst2|inst6|inst8~0_combout $end
$var wire 1 o" inst2|inst6|inst10|inst~combout $end
$var wire 1 p" inst2|inst6|inst8~1_combout $end
$var wire 1 q" inst|inst3|inst10|inst5~combout $end
$var wire 1 r" inst|inst3|inst8~0_combout $end
$var wire 1 s" inst|inst3|inst8~1_combout $end
$var wire 1 t" inst|inst4|inst~combout $end
$var wire 1 u" inst|inst4|inst10|inst~combout $end
$var wire 1 v" inst|inst4|inst2~combout $end
$var wire 1 w" inst|inst4|inst8~0_combout $end
$var wire 1 x" inst|inst2|inst10|inst4~combout $end
$var wire 1 y" inst|inst4|inst8~1_combout $end
$var wire 1 z" inst|inst2|inst2~combout $end
$var wire 1 {" inst|inst2|inst8~0_combout $end
$var wire 1 |" inst|inst2|inst10|inst~combout $end
$var wire 1 }" inst|inst2|inst8~1_combout $end
$var wire 1 ~" inst|inst7|inst2~combout $end
$var wire 1 !# inst|inst7|inst~combout $end
$var wire 1 "# inst|inst7|inst10|inst3~0_combout $end
$var wire 1 ## inst|inst7|inst10|inst4~7_combout $end
$var wire 1 $# inst|inst7|inst10|inst4~6_combout $end
$var wire 1 %# inst|inst|inst10|inst~combout $end
$var wire 1 &# inst|inst|inst8~0_combout $end
$var wire 1 '# inst|inst|inst8~1_combout $end
$var wire 1 (# inst|inst7|inst8~0_combout $end
$var wire 1 )# inst|inst7|inst10|inst~combout $end
$var wire 1 *# inst|inst8|inst~combout $end
$var wire 1 +# inst|inst5|inst~combout $end
$var wire 1 ,# inst|inst5|inst2~combout $end
$var wire 1 -# inst|inst5|inst10|inst2~combout $end
$var wire 1 .# inst|inst6|inst~combout $end
$var wire 1 /# inst|inst5|inst10|inst3~0_combout $end
$var wire 1 0# inst|inst7|inst10|inst4~4_combout $end
$var wire 1 1# inst|inst8|inst10|inst4~combout $end
$var wire 1 2# inst|inst7|inst8~1_combout $end
$var wire 1 3# inst|inst8|inst10|inst5~combout $end
$var wire 1 4# inst|inst8|inst8~0_combout $end
$var wire 1 5# inst|inst8|inst8~1_combout $end
$var wire 1 6# inst|inst5|inst10|inst~combout $end
$var wire 1 7# inst|inst5|inst8~0_combout $end
$var wire 1 8# inst|inst5|inst8~1_combout $end
$var wire 1 9# inst|inst6|inst2~combout $end
$var wire 1 :# inst|inst6|inst8~0_combout $end
$var wire 1 ;# inst|inst6|inst10|inst5~combout $end
$var wire 1 <# inst|inst6|inst8~1_combout $end
$var wire 1 =# inst9~8_combout $end
$var wire 1 ># inst9~9_combout $end
$var wire 1 ?# inst9~combout $end
$var wire 1 @# SLL8~combout $end
$var wire 1 A# SRA1~combout $end
$var wire 1 B# inst18[31]~4_combout $end
$var wire 1 C# inst18[30]~5_combout $end
$var wire 1 D# inst18[29]~48_combout $end
$var wire 1 E# inst18[29]~49_combout $end
$var wire 1 F# inst18[28]~6_combout $end
$var wire 1 G# inst18[28]~46_combout $end
$var wire 1 H# inst18[27]~7_combout $end
$var wire 1 I# inst18[27]~47_combout $end
$var wire 1 J# inst18[26]~8_combout $end
$var wire 1 K# inst18[26]~9_combout $end
$var wire 1 L# inst18[25]~10_combout $end
$var wire 1 M# inst18[25]~11_combout $end
$var wire 1 N# inst18[24]~12_combout $end
$var wire 1 O# inst18[24]~13_combout $end
$var wire 1 P# inst18[23]~14_combout $end
$var wire 1 Q# inst18[23]~15_combout $end
$var wire 1 R# inst18[22]~16_combout $end
$var wire 1 S# inst18[22]~17_combout $end
$var wire 1 T# inst18[21]~18_combout $end
$var wire 1 U# inst18[21]~19_combout $end
$var wire 1 V# inst18[20]~20_combout $end
$var wire 1 W# inst18[20]~21_combout $end
$var wire 1 X# inst18[19]~22_combout $end
$var wire 1 Y# inst18[19]~23_combout $end
$var wire 1 Z# inst18[18]~24_combout $end
$var wire 1 [# inst18[18]~25_combout $end
$var wire 1 \# inst18[17]~26_combout $end
$var wire 1 ]# inst18[17]~27_combout $end
$var wire 1 ^# inst18[16]~28_combout $end
$var wire 1 _# inst18[16]~29_combout $end
$var wire 1 `# inst18[15]~30_combout $end
$var wire 1 a# inst18[15]~31_combout $end
$var wire 1 b# inst18[14]~32_combout $end
$var wire 1 c# inst18[14]~33_combout $end
$var wire 1 d# inst18[13]~34_combout $end
$var wire 1 e# inst18[13]~35_combout $end
$var wire 1 f# inst18[12]~36_combout $end
$var wire 1 g# inst18[12]~37_combout $end
$var wire 1 h# inst18[11]~38_combout $end
$var wire 1 i# inst18[11]~39_combout $end
$var wire 1 j# inst18[10]~40_combout $end
$var wire 1 k# inst18[10]~41_combout $end
$var wire 1 l# inst18[9]~42_combout $end
$var wire 1 m# inst18[9]~43_combout $end
$var wire 1 n# inst18[8]~44_combout $end
$var wire 1 o# inst18[8]~45_combout $end
$var wire 1 p# inst18 [31] $end
$var wire 1 q# inst18 [30] $end
$var wire 1 r# inst18 [29] $end
$var wire 1 s# inst18 [28] $end
$var wire 1 t# inst18 [27] $end
$var wire 1 u# inst18 [26] $end
$var wire 1 v# inst18 [25] $end
$var wire 1 w# inst18 [24] $end
$var wire 1 x# inst18 [23] $end
$var wire 1 y# inst18 [22] $end
$var wire 1 z# inst18 [21] $end
$var wire 1 {# inst18 [20] $end
$var wire 1 |# inst18 [19] $end
$var wire 1 }# inst18 [18] $end
$var wire 1 ~# inst18 [17] $end
$var wire 1 !$ inst18 [16] $end
$var wire 1 "$ inst18 [15] $end
$var wire 1 #$ inst18 [14] $end
$var wire 1 $$ inst18 [13] $end
$var wire 1 %$ inst18 [12] $end
$var wire 1 &$ inst18 [11] $end
$var wire 1 '$ inst18 [10] $end
$var wire 1 ($ inst18 [9] $end
$var wire 1 )$ inst18 [8] $end
$var wire 1 *$ inst18 [7] $end
$var wire 1 +$ inst18 [6] $end
$var wire 1 ,$ inst18 [5] $end
$var wire 1 -$ inst18 [4] $end
$var wire 1 .$ inst18 [3] $end
$var wire 1 /$ inst18 [2] $end
$var wire 1 0$ inst18 [1] $end
$var wire 1 1$ inst18 [0] $end
$var wire 1 2$ F~combout [5] $end
$var wire 1 3$ F~combout [4] $end
$var wire 1 4$ F~combout [3] $end
$var wire 1 5$ F~combout [2] $end
$var wire 1 6$ F~combout [1] $end
$var wire 1 7$ F~combout [0] $end
$var wire 1 8$ B~combout [31] $end
$var wire 1 9$ B~combout [30] $end
$var wire 1 :$ B~combout [29] $end
$var wire 1 ;$ B~combout [28] $end
$var wire 1 <$ B~combout [27] $end
$var wire 1 =$ B~combout [26] $end
$var wire 1 >$ B~combout [25] $end
$var wire 1 ?$ B~combout [24] $end
$var wire 1 @$ B~combout [23] $end
$var wire 1 A$ B~combout [22] $end
$var wire 1 B$ B~combout [21] $end
$var wire 1 C$ B~combout [20] $end
$var wire 1 D$ B~combout [19] $end
$var wire 1 E$ B~combout [18] $end
$var wire 1 F$ B~combout [17] $end
$var wire 1 G$ B~combout [16] $end
$var wire 1 H$ B~combout [15] $end
$var wire 1 I$ B~combout [14] $end
$var wire 1 J$ B~combout [13] $end
$var wire 1 K$ B~combout [12] $end
$var wire 1 L$ B~combout [11] $end
$var wire 1 M$ B~combout [10] $end
$var wire 1 N$ B~combout [9] $end
$var wire 1 O$ B~combout [8] $end
$var wire 1 P$ B~combout [7] $end
$var wire 1 Q$ B~combout [6] $end
$var wire 1 R$ B~combout [5] $end
$var wire 1 S$ B~combout [4] $end
$var wire 1 T$ B~combout [3] $end
$var wire 1 U$ B~combout [2] $end
$var wire 1 V$ B~combout [1] $end
$var wire 1 W$ B~combout [0] $end
$var wire 1 X$ A~combout [31] $end
$var wire 1 Y$ A~combout [30] $end
$var wire 1 Z$ A~combout [29] $end
$var wire 1 [$ A~combout [28] $end
$var wire 1 \$ A~combout [27] $end
$var wire 1 ]$ A~combout [26] $end
$var wire 1 ^$ A~combout [25] $end
$var wire 1 _$ A~combout [24] $end
$var wire 1 `$ A~combout [23] $end
$var wire 1 a$ A~combout [22] $end
$var wire 1 b$ A~combout [21] $end
$var wire 1 c$ A~combout [20] $end
$var wire 1 d$ A~combout [19] $end
$var wire 1 e$ A~combout [18] $end
$var wire 1 f$ A~combout [17] $end
$var wire 1 g$ A~combout [16] $end
$var wire 1 h$ A~combout [15] $end
$var wire 1 i$ A~combout [14] $end
$var wire 1 j$ A~combout [13] $end
$var wire 1 k$ A~combout [12] $end
$var wire 1 l$ A~combout [11] $end
$var wire 1 m$ A~combout [10] $end
$var wire 1 n$ A~combout [9] $end
$var wire 1 o$ A~combout [8] $end
$var wire 1 p$ A~combout [7] $end
$var wire 1 q$ A~combout [6] $end
$var wire 1 r$ A~combout [5] $end
$var wire 1 s$ A~combout [4] $end
$var wire 1 t$ A~combout [3] $end
$var wire 1 u$ A~combout [2] $end
$var wire 1 v$ A~combout [1] $end
$var wire 1 w$ A~combout [0] $end
$upscope $end
$upscope $end
$enddefinitions $end
#0
$dumpvars
b101 !
b1111 "
b11000 #
0$
0%
xE
xD
xC
xB
xA
x@
x?
x>
x=
x<
x;
x:
x9
x8
x7
x6
x5
x4
x3
x2
x1
x0
x/
x.
x-
x,
x+
x*
x)
x(
x'
x&
xF
xG
xg
xf
xe
xd
xc
xb
xa
x`
x_
x^
x]
x\
x[
xZ
xY
xX
xW
xV
xU
xT
xS
xR
xQ
xP
xO
xN
xM
xL
xK
xJ
xI
xH
xh
xi
0j
1k
xl
1m
1n
1o
xp
xq
xr
xs
xt
xu
xv
xw
xx
xy
xz
x{
x|
x}
x~
x!!
x"!
x#!
x$!
x%!
x&!
x'!
x(!
x)!
x*!
x+!
x,!
x-!
x.!
x/!
x0!
x1!
x2!
x3!
x4!
x5!
x6!
x7!
x8!
x9!
x:!
x;!
x<!
x=!
x>!
x?!
x@!
xA!
xB!
xC!
xD!
xE!
xF!
xG!
xH!
xI!
xJ!
xK!
xL!
xM!
xN!
xO!
xP!
xQ!
xR!
xS!
xT!
xU!
xV!
xW!
xX!
xY!
xZ!
x[!
x\!
x]!
x^!
x_!
x`!
xa!
xb!
xc!
xd!
xe!
xf!
xg!
xh!
xi!
xj!
xk!
xl!
xm!
xn!
xo!
xp!
xq!
xr!
xs!
xt!
xu!
xv!
xw!
xx!
xy!
xz!
x{!
x|!
x}!
x~!
x!"
x""
x#"
x$"
x%"
x&"
x'"
x("
x)"
x*"
x+"
x,"
x-"
x."
x/"
x0"
x1"
x2"
x3"
x4"
x5"
x6"
x7"
x8"
x9"
x:"
x;"
x<"
x="
x>"
x?"
x@"
xA"
xB"
xC"
xD"
xE"
xF"
xG"
xH"
xI"
xJ"
xK"
xL"
xM"
xN"
xO"
xP"
xQ"
xR"
xS"
xT"
xU"
xV"
xW"
xX"
xY"
xZ"
x["
x\"
x]"
x^"
x_"
x`"
xa"
xb"
xc"
xd"
xe"
xf"
xg"
xh"
xi"
xj"
xk"
xl"
xm"
xn"
xo"
xp"
xq"
xr"
xs"
xt"
xu"
xv"
xw"
xx"
xy"
xz"
x{"
x|"
x}"
x~"
x!#
x"#
x##
x$#
x%#
x&#
x'#
x(#
x)#
x*#
x+#
x,#
x-#
x.#
x/#
x0#
x1#
x2#
x3#
x4#
x5#
x6#
x7#
x8#
x9#
x:#
x;#
x<#
x=#
x>#
x?#
0@#
0A#
xB#
xC#
xD#
xE#
xF#
xG#
xH#
xI#
xJ#
xK#
xL#
xM#
xN#
xO#
xP#
xQ#
xR#
xS#
xT#
xU#
xV#
xW#
xX#
xY#
xZ#
x[#
x\#
x]#
x^#
x_#
x`#
xa#
xb#
xc#
xd#
xe#
xf#
xg#
xh#
xi#
xj#
xk#
xl#
xm#
xn#
xo#
x1$
x0$
x/$
x.$
x-$
x,$
x+$
x*$
z)$
z($
z'$
z&$
z%$
z$$
z#$
z"$
z!$
z~#
z}#
z|#
z{#
zz#
zy#
zx#
zw#
zv#
zu#
zt#
zs#
zr#
xq#
zp#
07$
06$
05$
14$
13$
02$
1W$
1V$
1U$
1T$
0S$
0R$
0Q$
0P$
0O$
0N$
0M$
0L$
0K$
0J$
0I$
0H$
0G$
0F$
0E$
0D$
0C$
0B$
0A$
0@$
0?$
0>$
0=$
0<$
0;$
0:$
09$
08$
1w$
0v$
1u$
0t$
0s$
0r$
0q$
0p$
0o$
0n$
0m$
0l$
0k$
0j$
0i$
0h$
0g$
0f$
0e$
0d$
0c$
0b$
0a$
0`$
0_$
0^$
0]$
0\$
0[$
0Z$
0Y$
0X$
$end
#5926
0-"
#6027
0v
02!
#6114
0>"
#6122
0s
#6135
0&"
#6278
0f#
#6286
0X#
#6329
0D!
#6359
0:"
#6369
0H!
#6372
0i!
#6393
0["
0^"
#6415
0W"
#6480
0K!
#6517
0h#
#6522
0j#
0I!
#6534
0V#
#6561
0]!
#6564
0d!
#6569
0O!
#6707
0~!
#6709
0u
#6816
00"
#6833
0`!
#6970
09!
#6982
0t
#6987
0w!
#7035
0_!
#7071
01!
#7073
0{
#7097
0!"
#7106
0J!
0m!
#7107
0y
#7135
0""
#7139
0V"
#7149
0q!
#7160
0Z#
#7162
0b"
#7168
0]"
#7172
0%"
#7177
0t"
#7179
0M!
#7201
0{!
#7205
0*"
#7215
0,"
#7229
0L!
#7289
0C"
#7325
0n#
#7326
0q
0`#
#7329
0N#
0\#
#7380
0'"
#7387
0k!
#7391
0j!
#7396
0x
#7420
0y!
#7424
0p!
#7425
0E!
#7435
0+#
#7436
0.#
#7439
0/!
#7448
05!
#7461
0$!
#7470
0,#
#7471
19#
#7505
0u!
#7529
0/"
#7531
0("
#7532
08"
0z"
#7533
0)"
#7534
0v"
#7622
0^#
#7626
0L#
#7630
0*#
#7631
0!#
#7648
0~"
#7679
0<!
#7680
08!
#7695
00!
#7696
06!
#7701
0p
01"
#7703
0%#
#7719
0?"
#7760
0c"
#7764
0w
#7770
0e"
#7797
0M"
#7832
03!
0S!
#7845
0R#
#7847
0#"
#7858
0-#
#7871
0!!
0D"
#7880
0"#
#7896
0@"
#7901
0##
#7902
1|
#7934
0e!
#8011
0F!
#8031
0/#
#8034
0$#
#8089
0"!
#8095
0X"
#8097
0{"
#8131
0T!
#8163
0u"
#8172
0="
#8173
0l!
#8177
0\"
#8191
0E"
#8200
0S"
0+"
#8224
0T#
#8232
0<"
#8234
0)#
#8238
0a"
0_"
#8239
07#
#8240
1:#
#8258
0d#
0|!
#8268
0b#
#8271
0P#
#8274
02"
#8284
07!
#8285
06"
#8286
0n"
#8288
0N"
#8289
0o"
#8298
0w"
#8359
0f!
#8361
0r
#8391
0V!
0R!
#8420
0x!
#8423
0N!
#8425
0g!
#8427
0:!
0;!
#8437
0Y"
#8441
06#
#8442
0|"
#8445
0."
#8455
0k"
#8462
01#
03#
#8484
0P"
#8485
0A"
#8512
0v!
#8520
0;#
#8539
0l"
#8541
07"
#8548
0J"
#8558
0>!
#8600
0z
#8607
0T"
#8623
0F"
#8657
0B"
#8659
0(#
#8698
0A!
#8709
09"
#8752
0&#
#8760
0i"
#8763
0?!
#8775
00#
#8798
08#
#8810
0K"
#8822
0f"
#8826
0;"
#8863
0$"
#8893
0Y!
#8923
0z!
#8962
0r"
#8964
05"
#8967
14#
#8985
0`"
#8990
0h!
#9014
04!
#9051
0B!
#9061
0Q"
#9118
0G"
#9131
0a!
#9137
0Z"
#9145
0r!
#9149
0#!
#9180
0P!
#9229
1<#
#9238
0h"
#9252
0}"
#9253
0q"
#9286
0~
#9291
0U"
#9324
0'#
#9416
0H"
#9455
03"
#9456
0%!
#9460
0x"
#9470
0Z!
#9492
0=!
#9511
0L"
#9514
0}!
#9519
0m"
#9536
0y"
#9540
15#
#9626
0R"
#9650
04"
#9671
0}
#9806
0s!
#9897
0[!
#9909
0p"
#9984
0I"
#10001
0l#
#10003
02#
#10035
0C!
#10158
0&!
#10219
0Q!
#10251
0j"
#10260
0m#
#10301
0s"
#10384
0D#
#10385
0t!
#10389
0W!
#10432
0O"
#10639
0g"
#10969
0X!
#10980
0\!
#11076
0,$
#11091
0G!
0b!
#11092
0^!
#11135
0[#
#11152
00$
#11154
0+$
#11192
0U!
#11197
0Q#
#11223
11$
#11249
0n!
#11348
0d"
#11437
0@!
#11443
0J#
#11624
0O#
#11650
1'!
#11764
0-$
#11779
0c!
#11871
0e#
#11945
0o!
#12050
1/$
#12086
0c#
#12189
0.$
#12266
0k#
#12321
0_#
#12348
0*$
#12371
0o#
#12457
0a#
#12465
0F
#12576
0U#
#12609
0K#
#12826
0]#
#12969
0H#
#13067
0B#
#13152
0C#
#13170
0F#
#13212
0E#
#13408
0W#
#13566
0U
#13647
0Y#
#13683
0b
#13726
0f
#13784
0i#
#13862
0G#
#13950
0^
#13959
1(!
#13988
0a
#14094
0X
#14157
0O
#14197
0q#
#14286
0I#
#14298
0<
#14367
0`
#14466
0P
#14484
0M#
#14508
0V
#14695
1e
#14722
0g#
#14789
0J
#14802
1g
#14827
1)!
#14844
0S#
#14986
0Y
#14995
0_
#15117
0]
#15195
0d
