simulation/qsim/MIC1.msim.vcd
$comment
	File created using the following command:
		vcd file MIC1.msim.vcd -direction
$end
$date
	Mon Dec 02 11:48:54 2024
$end
$version
	ModelSim Version 10.1d
$end
$timescale
	1ps
$end
$scope module CONTROL_UNIT_vlg_vec_tst $end
$var reg 1 ! CLOCK $end
$var reg 8 " MBR_IN [7:0] $end
$var reg 1 # N $end
$var reg 1 $ Z $end
$var wire 1 % MIR [35] $end
$var wire 1 & MIR [34] $end
$var wire 1 ' MIR [33] $end
$var wire 1 ( MIR [32] $end
$var wire 1 ) MIR [31] $end
$var wire 1 * MIR [30] $end
$var wire 1 + MIR [29] $end
$var wire 1 , MIR [28] $end
$var wire 1 - MIR [27] $end
$var wire 1 . MIR [26] $end
$var wire 1 / MIR [25] $end
$var wire 1 0 MIR [24] $end
$var wire 1 1 MIR [23] $end
$var wire 1 2 MIR [22] $end
$var wire 1 3 MIR [21] $end
$var wire 1 4 MIR [20] $end
$var wire 1 5 MIR [19] $end
$var wire 1 6 MIR [18] $end
$var wire 1 7 MIR [17] $end
$var wire 1 8 MIR [16] $end
$var wire 1 9 MIR [15] $end
$var wire 1 : MIR [14] $end
$var wire 1 ; MIR [13] $end
$var wire 1 < MIR [12] $end
$var wire 1 = MIR [11] $end
$var wire 1 > MIR [10] $end
$var wire 1 ? MIR [9] $end
$var wire 1 @ MIR [8] $end
$var wire 1 A MIR [7] $end
$var wire 1 B MIR [6] $end
$var wire 1 C MIR [5] $end
$var wire 1 D MIR [4] $end
$var wire 1 E MIR [3] $end
$var wire 1 F MIR [2] $end
$var wire 1 G MIR [1] $end
$var wire 1 H MIR [0] $end
$var wire 1 I MPC [8] $end
$var wire 1 J MPC [7] $end
$var wire 1 K MPC [6] $end
$var wire 1 L MPC [5] $end
$var wire 1 M MPC [4] $end
$var wire 1 N MPC [3] $end
$var wire 1 O MPC [2] $end
$var wire 1 P MPC [1] $end
$var wire 1 Q MPC [0] $end
$var wire 1 R write_enable $end
$var wire 1 S sampler $end
$scope module i1 $end
$var wire 1 T gnd $end
$var wire 1 U vcc $end
$var wire 1 V unknown $end
$var tri1 1 W devclrn $end
$var tri1 1 X devpor $end
$var tri1 1 Y devoe $end
$var wire 1 Z inst2|inst8~regout $end
$var wire 1 [ N~combout $end
$var wire 1 \ inst2|inst8~feeder_combout $end
$var wire 1 ] CLOCK~combout $end
$var wire 1 ^ CLOCK~clkctrl_outclk $end
$var wire 1 _ Z~combout $end
$var wire 1 ` inst2|inst1~regout $end
$var wire 1 a inst2|inst6~0_combout $end
$var wire 1 b inst2|inst6~combout $end
$var wire 1 c inst1~regout $end
$var wire 1 d rom|altsyncram_component|auto_generated|q_a [35] $end
$var wire 1 e rom|altsyncram_component|auto_generated|q_a [34] $end
$var wire 1 f rom|altsyncram_component|auto_generated|q_a [33] $end
$var wire 1 g rom|altsyncram_component|auto_generated|q_a [32] $end
$var wire 1 h rom|altsyncram_component|auto_generated|q_a [31] $end
$var wire 1 i rom|altsyncram_component|auto_generated|q_a [30] $end
$var wire 1 j rom|altsyncram_component|auto_generated|q_a [29] $end
$var wire 1 k rom|altsyncram_component|auto_generated|q_a [28] $end
$var wire 1 l rom|altsyncram_component|auto_generated|q_a [27] $end
$var wire 1 m rom|altsyncram_component|auto_generated|q_a [26] $end
$var wire 1 n rom|altsyncram_component|auto_generated|q_a [25] $end
$var wire 1 o rom|altsyncram_component|auto_generated|q_a [24] $end
$var wire 1 p rom|altsyncram_component|auto_generated|q_a [23] $end
$var wire 1 q rom|altsyncram_component|auto_generated|q_a [22] $end
$var wire 1 r rom|altsyncram_component|auto_generated|q_a [21] $end
$var wire 1 s rom|altsyncram_component|auto_generated|q_a [20] $end
$var wire 1 t rom|altsyncram_component|auto_generated|q_a [19] $end
$var wire 1 u rom|altsyncram_component|auto_generated|q_a [18] $end
$var wire 1 v rom|altsyncram_component|auto_generated|q_a [17] $end
$var wire 1 w rom|altsyncram_component|auto_generated|q_a [16] $end
$var wire 1 x rom|altsyncram_component|auto_generated|q_a [15] $end
$var wire 1 y rom|altsyncram_component|auto_generated|q_a [14] $end
$var wire 1 z rom|altsyncram_component|auto_generated|q_a [13] $end
$var wire 1 { rom|altsyncram_component|auto_generated|q_a [12] $end
$var wire 1 | rom|altsyncram_component|auto_generated|q_a [11] $end
$var wire 1 } rom|altsyncram_component|auto_generated|q_a [10] $end
$var wire 1 ~ rom|altsyncram_component|auto_generated|q_a [9] $end
$var wire 1 !! rom|altsyncram_component|auto_generated|q_a [8] $end
$var wire 1 "! rom|altsyncram_component|auto_generated|q_a [7] $end
$var wire 1 #! rom|altsyncram_component|auto_generated|q_a [6] $end
$var wire 1 $! rom|altsyncram_component|auto_generated|q_a [5] $end
$var wire 1 %! rom|altsyncram_component|auto_generated|q_a [4] $end
$var wire 1 &! rom|altsyncram_component|auto_generated|q_a [3] $end
$var wire 1 '! rom|altsyncram_component|auto_generated|q_a [2] $end
$var wire 1 (! rom|altsyncram_component|auto_generated|q_a [1] $end
$var wire 1 )! rom|altsyncram_component|auto_generated|q_a [0] $end
$var wire 1 *! MBR_IN~combout [7] $end
$var wire 1 +! MBR_IN~combout [6] $end
$var wire 1 ,! MBR_IN~combout [5] $end
$var wire 1 -! MBR_IN~combout [4] $end
$var wire 1 .! MBR_IN~combout [3] $end
$var wire 1 /! MBR_IN~combout [2] $end
$var wire 1 0! MBR_IN~combout [1] $end
$var wire 1 1! MBR_IN~combout [0] $end
$var wire 1 2! inst2|inst9 [7] $end
$var wire 1 3! inst2|inst9 [6] $end
$var wire 1 4! inst2|inst9 [5] $end
$var wire 1 5! inst2|inst9 [4] $end
$var wire 1 6! inst2|inst9 [3] $end
$var wire 1 7! inst2|inst9 [2] $end
$var wire 1 8! inst2|inst9 [1] $end
$var wire 1 9! inst2|inst9 [0] $end
$var wire 1 :! rom|altsyncram_component|auto_generated|ram_block1a27_PORTADATAOUT_bus [8] $end
$var wire 1 ;! rom|altsyncram_component|auto_generated|ram_block1a27_PORTADATAOUT_bus [7] $end
$var wire 1 <! rom|altsyncram_component|auto_generated|ram_block1a27_PORTADATAOUT_bus [6] $end
$var wire 1 =! rom|altsyncram_component|auto_generated|ram_block1a27_PORTADATAOUT_bus [5] $end
$var wire 1 >! rom|altsyncram_component|auto_generated|ram_block1a27_PORTADATAOUT_bus [4] $end
$var wire 1 ?! rom|altsyncram_component|auto_generated|ram_block1a27_PORTADATAOUT_bus [3] $end
$var wire 1 @! rom|altsyncram_component|auto_generated|ram_block1a27_PORTADATAOUT_bus [2] $end
$var wire 1 A! rom|altsyncram_component|auto_generated|ram_block1a27_PORTADATAOUT_bus [1] $end
$var wire 1 B! rom|altsyncram_component|auto_generated|ram_block1a27_PORTADATAOUT_bus [0] $end
$var wire 1 C! rom|altsyncram_component|auto_generated|ram_block1a18_PORTADATAOUT_bus [8] $end
$var wire 1 D! rom|altsyncram_component|auto_generated|ram_block1a18_PORTADATAOUT_bus [7] $end
$var wire 1 E! rom|altsyncram_component|auto_generated|ram_block1a18_PORTADATAOUT_bus [6] $end
$var wire 1 F! rom|altsyncram_component|auto_generated|ram_block1a18_PORTADATAOUT_bus [5] $end
$var wire 1 G! rom|altsyncram_component|auto_generated|ram_block1a18_PORTADATAOUT_bus [4] $end
$var wire 1 H! rom|altsyncram_component|auto_generated|ram_block1a18_PORTADATAOUT_bus [3] $end
$var wire 1 I! rom|altsyncram_component|auto_generated|ram_block1a18_PORTADATAOUT_bus [2] $end
$var wire 1 J! rom|altsyncram_component|auto_generated|ram_block1a18_PORTADATAOUT_bus [1] $end
$var wire 1 K! rom|altsyncram_component|auto_generated|ram_block1a18_PORTADATAOUT_bus [0] $end
$var wire 1 L! rom|altsyncram_component|auto_generated|ram_block1a9_PORTADATAOUT_bus [8] $end
$var wire 1 M! rom|altsyncram_component|auto_generated|ram_block1a9_PORTADATAOUT_bus [7] $end
$var wire 1 N! rom|altsyncram_component|auto_generated|ram_block1a9_PORTADATAOUT_bus [6] $end
$var wire 1 O! rom|altsyncram_component|auto_generated|ram_block1a9_PORTADATAOUT_bus [5] $end
$var wire 1 P! rom|altsyncram_component|auto_generated|ram_block1a9_PORTADATAOUT_bus [4] $end
$var wire 1 Q! rom|altsyncram_component|auto_generated|ram_block1a9_PORTADATAOUT_bus [3] $end
$var wire 1 R! rom|altsyncram_component|auto_generated|ram_block1a9_PORTADATAOUT_bus [2] $end
$var wire 1 S! rom|altsyncram_component|auto_generated|ram_block1a9_PORTADATAOUT_bus [1] $end
$var wire 1 T! rom|altsyncram_component|auto_generated|ram_block1a9_PORTADATAOUT_bus [0] $end
$var wire 1 U! rom|altsyncram_component|auto_generated|ram_block1a0_PORTADATAOUT_bus [8] $end
$var wire 1 V! rom|altsyncram_component|auto_generated|ram_block1a0_PORTADATAOUT_bus [7] $end
$var wire 1 W! rom|altsyncram_component|auto_generated|ram_block1a0_PORTADATAOUT_bus [6] $end
$var wire 1 X! rom|altsyncram_component|auto_generated|ram_block1a0_PORTADATAOUT_bus [5] $end
$var wire 1 Y! rom|altsyncram_component|auto_generated|ram_block1a0_PORTADATAOUT_bus [4] $end
$var wire 1 Z! rom|altsyncram_component|auto_generated|ram_block1a0_PORTADATAOUT_bus [3] $end
$var wire 1 [! rom|altsyncram_component|auto_generated|ram_block1a0_PORTADATAOUT_bus [2] $end
$var wire 1 \! rom|altsyncram_component|auto_generated|ram_block1a0_PORTADATAOUT_bus [1] $end
$var wire 1 ]! rom|altsyncram_component|auto_generated|ram_block1a0_PORTADATAOUT_bus [0] $end
$upscope $end
$upscope $end
$enddefinitions $end
#0
$dumpvars
0!
b1100000 "
0#
0$
xH
xG
xF
xE
xD
xC
xB
xA
x@
x?
x>
x=
x<
x;
x:
x9
x8
x7
x6
x5
x4
x3
x2
x1
x0
x/
x.
x-
x,
x+
x*
x)
x(
x'
x&
x%
xQ
xP
xO
xN
xM
xL
xK
xJ
xI
xR
xS
0T
1U
xV
1W
1X
1Y
0Z
0[
x\
0]
x^
0_
0`
xa
xb
0c
0)!
0(!
0'!
0&!
0%!
0$!
0#!
0"!
0!!
0~
0}
0|
0{
0z
0y
0x
0w
0v
0u
0t
0s
0r
0q
0p
0o
0n
0m
0l
0k
0j
0i
0h
0g
0f
0e
0d
01!
00!
0/!
0.!
0-!
1,!
1+!
0*!
x9!
x8!
x7!
x6!
x5!
x4!
x3!
x2!
0B!
0A!
0@!
0?!
0>!
0=!
0<!
0;!
0:!
0K!
0J!
0I!
0H!
0G!
0F!
0E!
0D!
0C!
0T!
0S!
0R!
0Q!
0P!
0O!
0N!
0M!
0L!
0]!
0\!
0[!
0Z!
0Y!
0X!
0W!
0V!
0U!
$end
#135
0^
#1103
0a
#1666
0b
#1716
02!
#1718
08!
05!
#1723
07!
#1726
03!
#1729
04!
#1730
09!
06!
#4045
0,
#4047
0)
#4066
0%
#4359
0F
#4377
0E
#4387
0B
#4405
0(
#4421
0@
0+
#4423
0*
#4431
0&
#4446
07
#4475
0'
#4477
0R
#4499
08
#4503
00
#4693
0G
#4720
0D
#4729
0C
#4747
0H
#4758
02
#4774
0A
#4798
0?
#4840
0<
#5054
05
#5124
06
#5129
0-
#5142
04
#5148
0=
#5210
0>
#5217
0:
#5250
09
#5453
01
#5515
0/
#5521
0;
#5577
0.
#5830
03
#6770
0I
#6814
0J
#6836
0M
#6979
0\
#6995
0Q
#7182
0K
#7184
0P
#7191
0O
#7253
0L
#7611
0N
#140000
1!
0S
#141100
1]
#141235
1^
#200000
0!
1S
#201100
0]
#201235
0^
#206356
1A!
1k
#207629
18!
#210401
1,
#213095
1P
#340000
1!
0S
#341100
1]
#341235
1^
#400000
0!
1S
#401100
0]
#401235
0^
#406353
1T!
1M!
1~
1w
#406356
0A!
0k
#406357
1K!
1I!
1H!
1C!
1u
1s
1r
1m
#406368
1]!
1Y!
1)!
1%!
#407629
08!
#408083
13!
#408086
14!
#410401
0,
#410852
18
#411088
1D
#411115
1H
#411151
1?
#411481
16
#411499
14
#411934
1.
#412187
13
#413095
0P
#413539
1K
#413610
1L
#420000
b1100100 "
0S
#420934
1/!
#427272
17!
#432740
1O
#540000
1!
1S
#541100
1]
#541235
1^
#600000
0!
0S
#601100
0]
#601235
0^
#606353
0T!
1S!
0M!
1L!
0~
1}
0w
1v
#606356
1B!
1@!
1=!
1<!
1l
1j
1g
1f
#606357
0C!
0m
#606368
0]!
1[!
0Y!
1X!
1V!
0)!
1'!
0%!
1$!
1"!
#607680
19!
#610727
1F
#610761
1(
#610777
1+
#610799
17
#610831
1'
#610852
08
#611088
0D
#611097
1C
#611115
0H
#611142
1A
#611151
0?
#611485
1-
#611563
1>
#611934
0.
#612945
1Q
#740000
1!
1S
#741100
1]
#741235
1^
#800000
0!
0S
#801100
0]
#801235
0^
#806353
0S!
1N!
0L!
0}
1x
0v
#806356
0B!
1A!
0l
1k
#806357
0H!
0r
#806368
1]!
1\!
0X!
0V!
1)!
1(!
0$!
0"!
#807629
18!
#807680
09!
#810401
1,
#810799
07
#811061
1G
#811097
0C
#811115
1H
#811142
0A
#811485
0-
#811563
0>
#811603
19
#812187
03
#812945
0Q
#813095
1P
#940000
1!
1S
#941100
1]
#941235
1^
#1000000
0!
0S
#1001100
0]
#1001235
0^
#1006353
1P!
0N!
1M!
1L!
1z
0x
1w
1v
#1006356
0@!
0=!
0<!
0j
0g
0f
#1006357
1J!
1H!
1t
1r
#1006368
0]!
0\!
0[!
1W!
1U!
0)!
0(!
0'!
1#!
1!!
#1007230
03!
#1007321
07!
#1007686
04!
#1010727
0F
#1010755
1B
#1010761
0(
#1010777
0+
#1010789
1@
#1010799
17
#1010831
0'
#1010852
18
#1011061
0G
#1011115
0H
#1011411
15
#1011603
09
#1011874
1;
#1012187
13
#1012686
0K
#1012789
0O
#1013210
0L
#1140000
1!
1S
#1141100
1]
#1141235
1^
#1143654
1c
#1148131
1R
#1200000
0!
0S
#1201100
0]
#1201235
0^
#1206353
1T!
0P!
0L!
1~
0z
0v
#1206356
0A!
0k
#1206357
0J!
1C!
0t
1m
#1206368
1]!
1Y!
0W!
0U!
1)!
1%!
0#!
0!!
#1207629
08!
#1208080
17!
#1208083
13!
#1208086
14!
#1210401
0,
#1210755
0B
#1210789
0@
#1210799
07
#1211088
1D
#1211115
1H
#1211151
1?
#1211411
05
#1211874
0;
#1211934
1.
#1213095
0P
#1213539
1K
#1213548
1O
#1213610
1L
#1340000
1!
1S
#1341100
1]
#1341235
1^
#1343654
0c
#1348131
0R
#1399000
b100100 "
b100 "
b0 "
0S
#1399934
0/!
#1399944
0,!
#1400000
0!
1S
#1400070
0+!
#1401100
0]
#1401235
0^
#1402392
03!
#1406272
07!
#1406353
0T!
1S!
0M!
1L!
0~
1}
0w
1v
#1406356
1B!
1@!
1=!
1<!
1l
1j
1g
1f
#1406357
0C!
0m
#1406368
0]!
1[!
0Y!
1X!
1V!
0)!
1'!
0%!
1$!
1"!
#1407230
13!
#1407321
17!
#1407680
19!
#1407848
0K
#1410727
1F
#1410761
1(
#1410777
1+
#1410799
17
#1410831
1'
#1410852
08
#1411088
0D
#1411097
1C
#1411115
0H
#1411142
1A
#1411151
0?
#1411485
1-
#1411563
1>
#1411934
0.
#1412686
1K
#1412945
1Q
#1540000
1!
0S
#1541100
1]
#1541235
1^
#1600000
0!
1S
#1601100
0]
#1601235
0^
#1606353
0S!
1N!
0L!
0}
1x
0v
#1606356
0B!
1A!
0l
1k
#1606357
0H!
0r
#1606368
1]!
1\!
0X!
0V!
1)!
1(!
0$!
0"!
#1607629
18!
#1607680
09!
#1610401
1,
#1610799
07
#1611061
1G
#1611097
0C
#1611115
1H
#1611142
0A
#1611485
0-
#1611563
0>
#1611603
19
#1612187
03
#1612945
0Q
#1613095
1P
#1740000
1!
0S
#1741100
1]
