simulation/qsim/MIC1.msim.vcd
$comment
	File created using the following command:
		vcd file MIC1.msim.vcd -direction
$end
$date
	Sun Aug 04 01:44:32 2024
$end
$version
	ModelSim Version 10.1d
$end
$timescale
	1ps
$end
$scope module MBR_vlg_vec_tst $end
$var reg 1 ! CLOCK $end
$var reg 1 " LOAD $end
$var reg 36 # MIR [35:0] $end
$var reg 8 $ PROGRAM_BYTE [7:0] $end
$var wire 1 % OUT_B [31] $end
$var wire 1 & OUT_B [30] $end
$var wire 1 ' OUT_B [29] $end
$var wire 1 ( OUT_B [28] $end
$var wire 1 ) OUT_B [27] $end
$var wire 1 * OUT_B [26] $end
$var wire 1 + OUT_B [25] $end
$var wire 1 , OUT_B [24] $end
$var wire 1 - OUT_B [23] $end
$var wire 1 . OUT_B [22] $end
$var wire 1 / OUT_B [21] $end
$var wire 1 0 OUT_B [20] $end
$var wire 1 1 OUT_B [19] $end
$var wire 1 2 OUT_B [18] $end
$var wire 1 3 OUT_B [17] $end
$var wire 1 4 OUT_B [16] $end
$var wire 1 5 OUT_B [15] $end
$var wire 1 6 OUT_B [14] $end
$var wire 1 7 OUT_B [13] $end
$var wire 1 8 OUT_B [12] $end
$var wire 1 9 OUT_B [11] $end
$var wire 1 : OUT_B [10] $end
$var wire 1 ; OUT_B [9] $end
$var wire 1 < OUT_B [8] $end
$var wire 1 = OUT_B [7] $end
$var wire 1 > OUT_B [6] $end
$var wire 1 ? OUT_B [5] $end
$var wire 1 @ OUT_B [4] $end
$var wire 1 A OUT_B [3] $end
$var wire 1 B OUT_B [2] $end
$var wire 1 C OUT_B [1] $end
$var wire 1 D OUT_B [0] $end
$var wire 1 E OUT_MBR [7] $end
$var wire 1 F OUT_MBR [6] $end
$var wire 1 G OUT_MBR [5] $end
$var wire 1 H OUT_MBR [4] $end
$var wire 1 I OUT_MBR [3] $end
$var wire 1 J OUT_MBR [2] $end
$var wire 1 K OUT_MBR [1] $end
$var wire 1 L OUT_MBR [0] $end
$var wire 1 M sampler $end
$scope module i1 $end
$var wire 1 N gnd $end
$var wire 1 O vcc $end
$var wire 1 P unknown $end
$var tri1 1 Q devclrn $end
$var tri1 1 R devpor $end
$var tri1 1 S devoe $end
$var wire 1 T inst15~regout $end
$var wire 1 U inst1|inst12~combout $end
$var wire 1 V inst|inst12~combout $end
$var wire 1 W CLOCK~combout $end
$var wire 1 X inst|inst12~clkctrl_outclk $end
$var wire 1 Y inst1|inst12~clkctrl_outclk $end
$var wire 1 Z inst15~feeder_combout $end
$var wire 1 [ inst12~combout $end
$var wire 1 \ LOAD~combout $end
$var wire 1 ] LOAD~clkctrl_outclk $end
$var wire 1 ^ inst1|inst2|inst~regout $end
$var wire 1 _ inst10~combout $end
$var wire 1 ` inst|inst14[30]~32_combout $end
$var wire 1 a inst|inst14[31]~33_combout $end
$var wire 1 b inst|inst2|inst~regout $end
$var wire 1 c inst|inst14[7]~34_combout $end
$var wire 1 d inst|inst2|inst1~regout $end
$var wire 1 e inst1|inst2|inst1~regout $end
$var wire 1 f inst|inst14[6]~35_combout $end
$var wire 1 g inst1|inst2|inst2~regout $end
$var wire 1 h inst|inst2|inst2~regout $end
$var wire 1 i inst|inst14[5]~36_combout $end
$var wire 1 j inst1|inst2|inst3~regout $end
$var wire 1 k inst|inst2|inst3~regout $end
$var wire 1 l inst|inst14[4]~37_combout $end
$var wire 1 m inst1|inst3|inst~regout $end
$var wire 1 n inst|inst3|inst~regout $end
$var wire 1 o inst|inst14[3]~38_combout $end
$var wire 1 p inst1|inst3|inst1~regout $end
$var wire 1 q inst|inst3|inst1~regout $end
$var wire 1 r inst|inst14[2]~39_combout $end
$var wire 1 s inst1|inst3|inst2~regout $end
$var wire 1 t inst|inst3|inst2~regout $end
$var wire 1 u inst|inst14[1]~40_combout $end
$var wire 1 v inst1|inst3|inst3~regout $end
$var wire 1 w inst|inst3|inst3~regout $end
$var wire 1 x inst|inst14[0]~41_combout $end
$var wire 1 y PROGRAM_BYTE~combout [7] $end
$var wire 1 z PROGRAM_BYTE~combout [6] $end
$var wire 1 { PROGRAM_BYTE~combout [5] $end
$var wire 1 | PROGRAM_BYTE~combout [4] $end
$var wire 1 } PROGRAM_BYTE~combout [3] $end
$var wire 1 ~ PROGRAM_BYTE~combout [2] $end
$var wire 1 !! PROGRAM_BYTE~combout [1] $end
$var wire 1 "! PROGRAM_BYTE~combout [0] $end
$var wire 1 #! MIR~combout [35] $end
$var wire 1 $! MIR~combout [34] $end
$var wire 1 %! MIR~combout [33] $end
$var wire 1 &! MIR~combout [32] $end
$var wire 1 '! MIR~combout [31] $end
$var wire 1 (! MIR~combout [30] $end
$var wire 1 )! MIR~combout [29] $end
$var wire 1 *! MIR~combout [28] $end
$var wire 1 +! MIR~combout [27] $end
$var wire 1 ,! MIR~combout [26] $end
$var wire 1 -! MIR~combout [25] $end
$var wire 1 .! MIR~combout [24] $end
$var wire 1 /! MIR~combout [23] $end
$var wire 1 0! MIR~combout [22] $end
$var wire 1 1! MIR~combout [21] $end
$var wire 1 2! MIR~combout [20] $end
$var wire 1 3! MIR~combout [19] $end
$var wire 1 4! MIR~combout [18] $end
$var wire 1 5! MIR~combout [17] $end
$var wire 1 6! MIR~combout [16] $end
$var wire 1 7! MIR~combout [15] $end
$var wire 1 8! MIR~combout [14] $end
$var wire 1 9! MIR~combout [13] $end
$var wire 1 :! MIR~combout [12] $end
$var wire 1 ;! MIR~combout [11] $end
$var wire 1 <! MIR~combout [10] $end
$var wire 1 =! MIR~combout [9] $end
$var wire 1 >! MIR~combout [8] $end
$var wire 1 ?! MIR~combout [7] $end
$var wire 1 @! MIR~combout [6] $end
$var wire 1 A! MIR~combout [5] $end
$var wire 1 B! MIR~combout [4] $end
$var wire 1 C! MIR~combout [3] $end
$var wire 1 D! MIR~combout [2] $end
$var wire 1 E! MIR~combout [1] $end
$var wire 1 F! MIR~combout [0] $end
$upscope $end
$upscope $end
$enddefinitions $end
#0
$dumpvars
0!
1"
b0 #
b1 $
xD
xC
xB
xA
x@
x?
x>
x=
x<
x;
x:
x9
x8
x7
x6
x5
x4
x3
x2
x1
x0
x/
x.
x-
x,
x+
x*
x)
x(
x'
x&
x%
xL
xK
xJ
xI
xH
xG
xF
xE
xM
0N
1O
xP
1Q
1R
1S
0T
xU
xV
0W
xX
xY
xZ
x[
1\
x]
x^
x_
x`
xa
xb
xc
xd
xe
xf
xg
xh
xi
xj
xk
xl
xm
xn
xo
xp
xq
xr
xs
xt
xu
xv
xw
xx
1"!
0!!
0~
0}
0|
0{
0z
0y
0F!
0E!
0D!
0C!
0B!
zA!
z@!
z?!
z>!
z=!
z<!
z;!
z:!
z9!
z8!
z7!
z6!
z5!
z4!
z3!
z2!
z1!
z0!
z/!
z.!
z-!
z,!
z+!
z*!
z)!
z(!
z'!
z&!
z%!
z$!
z#!
$end
#135
1]
#267
0w
0t
0q
0n
0k
0h
0d
0b
0^
0e
0g
0j
0m
0p
0s
0v
#810
0V
#811
0U
#1497
0X
#1549
0Y
#4015
0K
#4416
0G
#4431
0F
#4474
0H
#4483
0I
#4490
0J
#4752
0L
#4786
0E
#5655
0[
#5907
0Z
#5951
0_
#5952
0a
#7322
1c
#7328
1i
#7329
1`
#7330
1o
1l
#7746
1u
#7752
1r
#7754
1x
#8207
1f
#9481
z>
#9491
zC
#9529
zB
#9539
z=
#9549
z@
#9561
z?
#9982
z-
#9984
zD
#9991
z8
z7
#9992
zA
z*
#10000
b11 $
b10 $
b10 #
b11 #
0M
#10001
z&
#10004
z0
#10011
z;
#10014
z6
z/
#10416
z+
z)
#10424
z:
z5
#10433
z'
#10443
z1
#10456
z,
#10463
z4
z(
#10476
z9
z.
#10905
0"!
1E!
#10935
1F!
#10955
1!!
#11139
z3
#11159
z<
z2
z%
#16590
1[
#16857
1a
#17980
0u
#17982
0r
#17983
0x
#18328
0`
#18407
0c
#18408
0i
#18409
0o
#18410
0l
#19142
0f
#20000
b11 $
1M
#20845
0>
#20855
0C
#20893
0B
#20903
0=
#20905
1"!
#20913
0@
#20925
0?
#21346
0-
#21348
0D
#21355
08
07
#21356
0A
0*
#21365
0&
#21368
00
#21375
0;
#21378
06
0/
#21780
0+
0)
#21788
0:
05
#21797
0'
#21807
01
#21820
0,
#21827
04
0(
#21840
09
0.
#22503
03
#22523
0<
02
0%
#30000
b111 $
b101 $
b100 $
0M
#30905
0"!
#30955
1~
0!!
#35000
1!
1M
#35925
1W
#40000
b101 $
0M
#40905
1"!
#50000
b111 $
b110 $
1M
#50905
0"!
#50955
1!!
#60000
b111 $
0M
#60905
1"!
#70000
b1111 $
b1011 $
0!
b1001 $
b1000 $
1M
#70905
1}
0"!
#70925
0W
#70955
0~
0!!
#75000
b10011 #
0M
#75905
1B!
#80000
b1001 $
1M
#80905
1"!
#81812
1Z
#90000
b1011 $
b1010 $
0M
#90905
0"!
#90955
1!!
#100000
b1011 $
1M
#100905
1"!
#105000
1!
0M
#105925
1W
#110000
b1111 $
b1101 $
b1100 $
1M
#110905
0"!
#110955
1~
0!!
#120000
b1101 $
0M
#120905
1"!
#130000
b1111 $
b1110 $
1M
#130905
0"!
#130955
1!!
#140000
0!
b1111 $
0M
#140905
1"!
#140925
0W
#143258
1T
#150000
b11111 $
b10111 $
b11 #
b10011 $
b10001 $
b10000 $
1M
#150905
0}
0"!
0B!
#150945
1|
#150955
0~
0!!
#156812
0Z
#160000
b10001 $
0M
#160905
1"!
#170000
b10011 $
b10010 $
1M
#170905
0"!
#170955
1!!
#175000
1!
0M
#175925
1W
#177537
1U
#177538
1V
#178225
1X
#178275
1Y
#180000
b10011 $
1M
#180552
1t
1k
#180604
1j
1s
#180905
1"!
#180945
1u
1l
#184352
1K
#184811
1H
#185026
1C
#185078
1@
#190000
b10111 $
b10101 $
b10100 $
0M
#190905
0"!
#190955
1~
0!!
#200000
b10101 $
1M
#200905
1"!
#210000
0!
b10111 $
b10110 $
0M
#210905
0"!
#210925
0W
#210955
1!!
#212537
0U
#212538
0V
#213225
0X
#213258
0T
#213275
0Y
#220000
b10111 $
1M
#220905
1"!
#225000
b10011 #
0M
#225905
1B!
#230000
b11111 $
b11011 $
b11001 $
b11000 $
1M
#230905
1}
0"!
#230955
0~
0!!
#231812
1Z
#240000
b11001 $
0M
#240905
1"!
#245000
1!
1M
#245925
1W
#250000
b11011 $
b11010 $
0M
#250905
0"!
#250955
1!!
#260000
b11011 $
1M
#260905
1"!
#270000
b11111 $
b11101 $
b11100 $
0M
#270905
0"!
#270955
1~
0!!
#280000
0!
b11101 $
1M
#280905
1"!
#280925
0W
#283258
1T
#290000
b11111 $
b11110 $
0M
#290905
0"!
#290955
1!!
#300000
b11 #
b11111 $
1M
#300905
0B!
1"!
#306812
0Z
#310000
b111111 $
b101111 $
b100111 $
b100011 $
b100001 $
b100000 $
0M
#310905
1{
0}
0"!
#310945
0|
#310955
0~
0!!
#315000
1!
1M
#315925
1W
#317537
1U
#317538
1V
#318225
1X
#318275
1Y
#320000
b100001 $
0M
#320552
0t
0k
1h
#320604
1g
0j
0s
#320905
1"!
#320945
0u
0l
1i
#324352
0K
#324648
1?
#324753
1G
#324811
0H
#325026
0C
#325078
0@
#330000
b100011 $
b100010 $
1M
#330905
0"!
#330955
1!!
#340000
b100011 $
0M
#340905
1"!
#350000
b100111 $
0!
b100101 $
b100100 $
1M
#350905
0"!
#350925
0W
#350955
1~
0!!
#352537
0U
#352538
0V
#353225
0X
#353258
0T
#353275
0Y
#360000
b100101 $
0M
#360905
1"!
#370000
b100111 $
b100110 $
1M
#370905
0"!
#370955
1!!
#375000
b10011 #
0M
#375905
1B!
#380000
b100111 $
1M
#380905
1"!
#381812
1Z
#385000
1!
0M
#385925
1W
#390000
b101111 $
b101011 $
b101001 $
b101000 $
1M
#390905
1}
0"!
#390955
0~
0!!
#400000
b101001 $
0M
#400905
1"!
#410000
b101011 $
b101010 $
1M
#410905
0"!
#410955
1!!
#420000
0!
b101011 $
0M
#420905
1"!
#420925
0W
#423258
1T
#430000
b101111 $
b101101 $
b101100 $
1M
#430905
0"!
#430955
1~
0!!
#440000
b101101 $
0M
#440905
1"!
#450000
b11 #
b101111 $
b101110 $
1M
#450905
0B!
0"!
#450955
1!!
#455000
1!
0M
#455925
1W
#456812
0Z
#457537
1U
#457538
1V
#458225
1X
#458275
1Y
#460000
b101111 $
1M
#460552
1t
1q
1n
#460604
1m
1p
1s
#460905
1"!
#460945
1u
1r
1o
#464352
1K
#464820
1I
#464827
1J
#465013
1B
#465026
1C
#465059
1A
#470000
b111111 $
b110111 $
b110011 $
b110001 $
b110000 $
0M
#470905
0}
0"!
#470945
1|
#470955
0~
0!!
#480000
b110001 $
1M
#480905
1"!
#490000
0!
b110011 $
b110010 $
0M
#490905
0"!
#490925
0W
#490955
1!!
#492537
0U
#492538
0V
#493225
0X
#493258
0T
#493275
0Y
#500000
b110011 $
1M
#500905
1"!
#510000
b110111 $
b110101 $
b110100 $
0M
#510905
0"!
#510955
1~
0!!
#520000
b110101 $
1M
#520905
1"!
#525000
b10011 #
1!
0M
#525905
1B!
#525925
1W
#530000
b110111 $
b110110 $
1M
#530905
0"!
#530955
1!!
#531812
1Z
#540000
b110111 $
0M
#540905
1"!
#550000
b111111 $
b111011 $
b111001 $
b111000 $
1M
#550905
1}
0"!
#550955
0~
0!!
#560000
0!
b111001 $
0M
#560905
1"!
#560925
0W
#563258
1T
#570000
b111011 $
b111010 $
1M
#570905
0"!
#570955
1!!
#580000
b111011 $
0M
#580905
1"!
#590000
b111111 $
b111101 $
b111100 $
1M
#590905
0"!
#590955
1~
0!!
#595000
1!
0M
#595925
1W
#597537
1U
#597538
1V
#598225
1X
#598275
1Y
#600000
b11 #
b111101 $
1M
#600552
0t
1k
#600604
1j
0s
#600905
0B!
1"!
#600945
0u
1l
#604352
0K
#604811
1H
#605026
0C
#605078
1@
#606812
0Z
#610000
b111111 $
b111110 $
0M
#610905
0"!
#610955
1!!
#620000
b111111 $
1M
#620905
1"!
#630000
b1111111 $
b1011111 $
b1001111 $
b1000111 $
b1000011 $
0!
b1000001 $
b1000000 $
0M
#630905
0{
0}
0"!
#630925
0W
#630945
0|
#630955
1z
0~
0!!
#632537
0U
#632538
0V
#633225
0X
#633258
0T
#633275
0Y
#640000
b1000001 $
1M
#640905
1"!
#650000
b1000011 $
b1000010 $
0M
#650905
0"!
#650955
1!!
#660000
b1000011 $
1M
#660905
1"!
#665000
1!
0M
#665925
1W
#670000
b1000111 $
b1000101 $
b1000100 $
1M
#670905
0"!
#670955
1~
0!!
#675000
b10011 #
0M
#675905
1B!
#680000
b1000101 $
1M
#680905
1"!
#681812
1Z
#690000
b10111 #
b10110 #
b1000111 $
b1000110 $
0M
#690905
0"!
#690935
0F!
#690955
1D!
1!!
#696590
0[
#696779
0a
#697980
1u
#697983
1x
#698328
1`
#698407
1c
#699142
1f
#700000
0!
b1000111 $
1M
#700308
z>
#700318
zC
#700356
zB
#700366
z=
#700376
z@
#700388
z?
#700809
z-
#700811
zD
#700818
z8
z7
#700819
zA
z*
#700828
z&
#700831
z0
#700838
z;
#700841
z6
z/
#700905
1"!
#700925
0W
#701243
z+
z)
#701251
z:
z5
#701260
z'
#701270
z1
#701283
z,
#701290
z4
z(
#701303
z9
z.
#701966
z3
#701986
z<
z2
z%
#703258
1T
#710000
b1001111 $
b1001011 $
b1001001 $
b1001000 $
0M
#710905
1}
0"!
#710955
0~
0!!
#720000
b1001001 $
1M
#720905
1"!
#730000
b1001011 $
b1001010 $
0M
#730905
0"!
#730955
1!!
#735000
1!
1M
#735925
1W
#737537
1U
#737538
1V
#738225
1X
#738275
1Y
#740000
b1001011 $
0M
#740552
1t
0q
0k
0h
1d
#740604
1e
0g
0j
0p
1s
#740905
1"!
#744352
1K
#744753
0G
#744768
1F
#744811
0H
#744827
0J
#750000
b110 #
b1001111 $
b1001101 $
b1001100 $
1M
#750905
0B!
0"!
#750955
1~
0!!
#756812
0Z
#760000
b1001101 $
0M
#760905
1"!
#770000
0!
b1001111 $
b1001110 $
1M
#770905
0"!
#770925
0W
#770955
1!!
#772537
0U
#772538
0V
#773225
0X
#773258
0T
#773275
0Y
#780000
b1001111 $
0M
#780905
1"!
#790000
b1011111 $
b1010111 $
b1010011 $
b1010001 $
b1010000 $
1M
#790905
0}
0"!
#790945
1|
#790955
0~
0!!
#800000
b1010001 $
0M
#800905
1"!
#805000
1!
1M
#805925
1W
#810000
b1010011 $
b1010010 $
0M
#810905
0"!
#810955
1!!
#820000
b1010011 $
1M
#820905
1"!
#825000
b10110 #
0M
#825905
1B!
#830000
b1010111 $
b1010101 $
b1010100 $
1M
#830905
0"!
#830955
1~
0!!
#831812
1Z
#840000
0!
b1010101 $
0M
#840905
1"!
#840925
0W
#843258
1T
#850000
b1010111 $
b1010110 $
1M
#850905
0"!
#850955
1!!
#860000
b1010111 $
0M
#860905
1"!
#870000
b1011111 $
b1011011 $
b1011001 $
b1011000 $
1M
#870905
1}
0"!
#870955
0~
0!!
#875000
1!
0M
#875925
1W
#877537
1U
#877538
1V
#878225
1X
#878275
1Y
#880000
b1011001 $
1M
#880552
0t
1k
#880604
1j
0s
#880905
1"!
#884352
0K
#884811
1H
#890000
b1011011 $
b1011010 $
0M
#890905
0"!
#890955
1!!
#900000
b110 #
b1011011 $
1M
#900905
0B!
1"!
#906812
0Z
#910000
b1110 #
b1100 #
b1000 #
b1001 #
b1011111 $
0!
b1011101 $
b1011100 $
0M
#910905
0E!
0"!
#910925
0W
#910935
1F!
#910955
1C!
0D!
1~
0!!
#912537
0U
#912538
0V
#913225
0X
#913258
0T
#913275
0Y
#920000
b1 #
b11 #
b10 #
b1011101 $
1M
#920905
1E!
1"!
#920935
0F!
#920955
0C!
#926432
1_
#926434
1a
#927803
0c
#927809
0i
#927810
0`
#928227
0u
#928233
0r
#928235
0x
#930000
b1011111 $
b1011110 $
0M
#930422
1>
#930432
0C
#930470
0B
#930480
0=
#930490
1@
#930502
0?
#930905
0"!
#930923
0-
#930925
0D
#930932
08
07
#930933
1A
0*
#930942
0&
#930945
00
#930952
0;
#930955
06
0/
1!!
#931357
0+
0)
#931365
0:
05
#931374
0'
#931384
01
#931397
0,
#931404
04
0(
#931417
09
0.
#932080
03
#932100
0<
02
0%
#940000
b1011111 $
1M
#940905
1"!
#945000
1!
0M
#945925
1W
#950000
b1111111 $
b1101111 $
b1100111 $
b1100011 $
b1100001 $
b1100000 $
1M
#950905
1{
0}
0"!
#950945
0|
#950955
0~
0!!
#960000
b1100001 $
0M
#960905
1"!
#970000
b1100011 $
b1100010 $
1M
#970905
0"!
#970955
1!!
#975000
b10010 #
0M
#975905
1B!
#980000
0!
b1100011 $
1M
#980905
1"!
#980925
0W
#981812
1Z
#983258
1T
#990000
b1100111 $
b1100101 $
b1100100 $
0M
#990905
0"!
#990955
1~
0!!
#1000000
b1100101 $
1M
#1000905
1"!
#1010000
b1100111 $
b1100110 $
0M
#1010905
0"!
#1010955
1!!
#1015000
1!
1M
#1015925
1W
#1017537
1U
#1017538
1V
#1018225
1X
#1018275
1Y
#1020000
b1100111 $
0M
#1020552
1t
1q
0n
0k
1h
#1020604
1g
0j
0m
1p
1s
#1020905
1"!
#1021718
0l
#1021720
0o
#1022032
1i
#1022285
1u
#1022356
1r
#1024352
1K
#1024753
1G
#1024811
0H
#1024820
0I
#1024827
1J
#1025735
1?
#1025834
0A
#1025851
0@
#1026366
1C
#1026424
1B
#1030000
b1101111 $
b1101011 $
b1101001 $
b1101000 $
1M
#1030905
1}
0"!
#1030955
0~
0!!
#1040000
b1101001 $
0M
#1040905
1"!
#1050000
b10 #
0!
b1101011 $
b1101010 $
1M
#1050905
0B!
0"!
#1050925
0W
#1050955
1!!
#1052537
0U
#1052538
0V
#1053225
0X
#1053275
0Y
#1056812
0Z
#1060000
b1101011 $
0M
#1060905
1"!
#1070000
b1101111 $
b1101101 $
b1101100 $
1M
#1070905
0"!
#1070955
1~
0!!
#1080000
b1101101 $
0M
#1080905
1"!
#1085000
1!
1M
#1085925
1W
#1087537
1U
#1087538
1V
#1088225
1X
#1088275
1Y
#1090000
b1101111 $
b1101110 $
0M
#1090552
1w
0t
1n
#1090604
1m
0s
1v
#1090905
0"!
#1090955
1!!
#1091720
1o
#1092285
0u
#1092350
1x
#1094352
0K
#1094820
1I
#1095089
1L
#1095834
1A
#1096366
0C
#1096497
1D
#1100000
b1101111 $
1M
#1100905
1"!
#1110000
b1111111 $
b1110111 $
b1110011 $
b1110001 $
b1110000 $
0M
#1110905
0}
0"!
#1110945
1|
#1110955
0~
0!!
#1120000
0!
b1110001 $
1M
#1120905
1"!
#1120925
0W
#1122537
0U
#1122538
0V
#1123225
0X
#1123258
0T
#1123275
0Y
#1125000
b10010 #
0M
#1125905
1B!
#1130000
b1110011 $
b1110010 $
1M
#1130905
0"!
#1130955
1!!
#1131812
1Z
#1140000
b1110011 $
0M
#1140905
1"!
#1150000
b1110111 $
b1110101 $
b1110100 $
1M
#1150905
0"!
#1150955
1~
0!!
#1155000
1!
0M
#1155925
1W
#1160000
b1110101 $
1M
#1160905
1"!
#1170000
b1110111 $
b1110110 $
0M
#1170905
0"!
#1170955
1!!
#1180000
b1110111 $
1M
#1180905
1"!
#1190000
b1111111 $
b1111011 $
0!
b1111001 $
b1111000 $
0M
#1190905
1}
0"!
#1190925
0W
#1190955
0~
0!!
#1193258
1T
#1200000
b10 #
b1111001 $
1M
#1200905
0B!
1"!
#1206812
0Z
#1210000
b1111011 $
b1111010 $
0M
#1210905
0"!
#1210955
1!!
#1220000
b1111011 $
1M
#1220905
1"!
#1225000
1!
0M
#1225925
1W
#1227537
1U
#1227538
1V
#1228225
1X
#1228275
1Y
#1230000
b1111111 $
b1111101 $
b1111100 $
1M
#1230552
1t
0q
1k
#1230604
1j
0p
1s
#1230905
0"!
#1230955
1~
0!!
#1231718
1l
#1232285
1u
#1232356
0r
#1234352
1K
#1234811
1H
#1234827
0J
#1235851
1@
#1236366
1C
#1236424
0B
#1240000
b1111101 $
0M
#1240905
1"!
#1250000
b1111111 $
b1111110 $
1M
#1250905
0"!
#1250955
1!!
#1260000
0!
b1111111 $
0M
#1260905
1"!
#1260925
0W
#1262537
0U
#1262538
0V
#1263225
0X
#1263258
0T
#1263275
0Y
#1270000
b11111111 $
b10111111 $
b10011111 $
b10001111 $
b10000111 $
b10000011 $
b10000001 $
b10000000 $
1M
#1270905
0{
0}
0"!
#1270945
0|
#1270955
1y
0z
0~
0!!
#1275000
b10010 #
0M
#1275905
1B!
#1280000
b10000001 $
1M
#1280905
1"!
#1281812
1Z
#1290000
b10000011 $
b10000010 $
0M
#1290905
0"!
#1290955
1!!
#1295000
1!
1M
#1295925
1W
#1300000
b10000011 $
0M
#1300905
1"!
#1310000
b10000111 $
b10000101 $
b10000100 $
1M
#1310905
0"!
#1310955
1~
0!!
#1320000
b10000101 $
0M
#1320905
1"!
#1330000
0!
b10000111 $
b10000110 $
1M
#1330905
0"!
#1330925
0W
#1330955
1!!
#1333258
1T
#1340000
b10000111 $
0M
#1340905
1"!
#1350000
b10001111 $
b10 #
b10001011 $
b10001001 $
b10001000 $
1M
#1350905
1}
0"!
0B!
#1350955
0~
0!!
#1356812
0Z
#1360000
b10001001 $
0M
#1360905
1"!
#1365000
1!
1M
#1365925
1W
#1367537
1U
#1367538
1V
#1368225
1X
#1368275
1Y
#1370000
b10001011 $
b10001010 $
0M
#1370552
0t
0k
0h
0d
1b
#1370604
1^
0e
0g
0j
0s
#1370905
0"!
#1370955
1!!
#1370997
1`
#1371241
0f
#1371718
0l
#1372032
0i
#1372034
1c
#1372285
0u
#1374352
0K
#1374753
0G
#1374768
0F
#1374811
0H
#1375123
1E
#1375163
1-
#1375173
1*
#1375189
10
#1375199
16
1/
#1375312
0>
#1375569
18
17
#1375579
1&
#1375589
1;
#1375735
0?
#1375851
0@
#1376017
1=
#1376207
1'
#1376217
11
#1376237
14
1(
#1376244
1:
15
#1376250
13
#1376253
1,
#1376259
1+
1)
#1376270
1%
#1376273
19
1.
#1376293
1<
12
#1376366
0C
#1380000
b10001011 $
1M
#1380905
1"!
#1390000
b10001111 $
b10001101 $
b10001100 $
0M
#1390905
0"!
#1390955
1~
0!!
#1400000
0!
b10001101 $
1M
#1400905
1"!
#1400925
0W
#1402537
0U
#1402538
0V
#1403225
0X
#1403258
0T
#1403275
0Y
#1410000
b10001111 $
b10001110 $
0M
#1410905
0"!
#1410955
1!!
#1420000
b10001111 $
1M
#1420905
1"!
#1425000
b10010 #
0M
#1425905
1B!
#1430000
b10011111 $
b10010111 $
b10010011 $
b10010001 $
b10010000 $
1M
#1430905
0}
0"!
#1430945
1|
#1430955
0~
0!!
#1431812
1Z
#1435000
1!
0M
#1435925
1W
#1440000
b10010001 $
1M
#1440905
1"!
#1450000
b10010011 $
b10010010 $
0M
#1450905
0"!
#1450955
1!!
#1460000
b10010011 $
1M
#1460905
1"!
#1470000
b10010111 $
0!
b10010101 $
b10010100 $
0M
#1470905
0"!
#1470925
0W
#1470955
1~
0!!
#1473258
1T
#1480000
b10010101 $
1M
#1480905
1"!
#1490000
b10010111 $
b10010110 $
0M
#1490905
0"!
#1490955
1!!
#1500000
b10 #
b10010111 $
1M
#1500905
0B!
1"!
#1505000
1!
0M
#1505925
1W
#1506812
0Z
#1507537
1U
#1507538
1V
#1508225
1X
#1508275
1Y
#1510000
b10011111 $
b10011011 $
b10011001 $
b10011000 $
1M
#1510552
1t
1q
0n
1k
#1510604
1j
0m
1p
1s
#1510905
1}
0"!
#1510955
0~
0!!
#1511718
1l
#1511720
0o
#1512285
1u
#1512356
1r
#1514352
1K
#1514811
1H
#1514820
0I
#1514827
1J
#1515834
0A
#1515851
1@
#1516366
1C
#1516424
1B
#1520000
b10011001 $
0M
#1520905
1"!
#1530000
b10011011 $
b10011010 $
1M
#1530905
0"!
#1530955
1!!
#1540000
0!
b10011011 $
0M
#1540905
1"!
#1540925
0W
#1542537
0U
#1542538
0V
#1543225
0X
#1543258
0T
#1543275
0Y
#1550000
b10011111 $
b10011101 $
b10011100 $
1M
#1550905
0"!
#1550955
1~
0!!
#1560000
b10011101 $
0M
#1560905
1"!
#1570000
b10011111 $
b10011110 $
1M
#1570905
0"!
#1570955
1!!
#1575000
b10010 #
1!
0M
#1575905
1B!
#1575925
1W
#1580000
b10011111 $
1M
#1580905
1"!
#1581812
1Z
#1590000
b10110 #
b11110 #
b11111 #
b10111111 $
b10101111 $
b10100111 $
b10100011 $
b10100001 $
b10100000 $
0M
#1590905
1{
0}
0"!
#1590935
1F!
#1590945
0|
#1590955
1C!
1D!
0~
0!!
#1596434
0a
#1596591
0_
#1597968
1i
#1597970
1o
#1598356
1f
#1599963
z>
#1599973
zC
