simulation/qsim/MIC1.msim.vcd
$comment
	File created using the following command:
		vcd file MIC1.msim.vcd -direction
$end
$date
	Sat Aug 03 15:10:20 2024
$end
$version
	ModelSim Version 10.1d
$end
$timescale
	1ps
$end
$scope module MAR_vlg_vec_tst $end
$var reg 1 ! CLOCK $end
$var reg 32 " IN_C [31:0] $end
$var reg 1 # LOAD $end
$var reg 36 $ MIR [35:0] $end
$var wire 1 % DATA_ADDRESS [31] $end
$var wire 1 & DATA_ADDRESS [30] $end
$var wire 1 ' DATA_ADDRESS [29] $end
$var wire 1 ( DATA_ADDRESS [28] $end
$var wire 1 ) DATA_ADDRESS [27] $end
$var wire 1 * DATA_ADDRESS [26] $end
$var wire 1 + DATA_ADDRESS [25] $end
$var wire 1 , DATA_ADDRESS [24] $end
$var wire 1 - DATA_ADDRESS [23] $end
$var wire 1 . DATA_ADDRESS [22] $end
$var wire 1 / DATA_ADDRESS [21] $end
$var wire 1 0 DATA_ADDRESS [20] $end
$var wire 1 1 DATA_ADDRESS [19] $end
$var wire 1 2 DATA_ADDRESS [18] $end
$var wire 1 3 DATA_ADDRESS [17] $end
$var wire 1 4 DATA_ADDRESS [16] $end
$var wire 1 5 DATA_ADDRESS [15] $end
$var wire 1 6 DATA_ADDRESS [14] $end
$var wire 1 7 DATA_ADDRESS [13] $end
$var wire 1 8 DATA_ADDRESS [12] $end
$var wire 1 9 DATA_ADDRESS [11] $end
$var wire 1 : DATA_ADDRESS [10] $end
$var wire 1 ; DATA_ADDRESS [9] $end
$var wire 1 < DATA_ADDRESS [8] $end
$var wire 1 = DATA_ADDRESS [7] $end
$var wire 1 > DATA_ADDRESS [6] $end
$var wire 1 ? DATA_ADDRESS [5] $end
$var wire 1 @ DATA_ADDRESS [4] $end
$var wire 1 A DATA_ADDRESS [3] $end
$var wire 1 B DATA_ADDRESS [2] $end
$var wire 1 C DATA_ADDRESS [1] $end
$var wire 1 D DATA_ADDRESS [0] $end
$var wire 1 E sampler $end
$scope module i1 $end
$var wire 1 F gnd $end
$var wire 1 G vcc $end
$var wire 1 H unknown $end
$var tri1 1 I devclrn $end
$var tri1 1 J devpor $end
$var tri1 1 K devoe $end
$var wire 1 L CLOCK~combout $end
$var wire 1 M inst|inst12~combout $end
$var wire 1 N inst|inst12~clkctrl_outclk $end
$var wire 1 O inst|inst5|inst~feeder_combout $end
$var wire 1 P LOAD~combout $end
$var wire 1 Q LOAD~clkctrl_outclk $end
$var wire 1 R inst|inst5|inst~regout $end
$var wire 1 S inst|inst5|inst1~feeder_combout $end
$var wire 1 T inst|inst5|inst1~regout $end
$var wire 1 U inst|inst5|inst2~feeder_combout $end
$var wire 1 V inst|inst5|inst2~regout $end
$var wire 1 W inst|inst5|inst3~regout $end
$var wire 1 X inst|inst4|inst~feeder_combout $end
$var wire 1 Y inst|inst4|inst~regout $end
$var wire 1 Z inst|inst4|inst1~feeder_combout $end
$var wire 1 [ inst|inst4|inst1~regout $end
$var wire 1 \ inst|inst4|inst2~regout $end
$var wire 1 ] inst|inst4|inst3~feeder_combout $end
$var wire 1 ^ inst|inst4|inst3~regout $end
$var wire 1 _ inst|inst6|inst~feeder_combout $end
$var wire 1 ` inst|inst6|inst~regout $end
$var wire 1 a inst|inst6|inst1~feeder_combout $end
$var wire 1 b inst|inst6|inst1~regout $end
$var wire 1 c inst|inst6|inst2~regout $end
$var wire 1 d inst|inst6|inst3~feeder_combout $end
$var wire 1 e inst|inst6|inst3~regout $end
$var wire 1 f inst|inst7|inst~feeder_combout $end
$var wire 1 g inst|inst7|inst~regout $end
$var wire 1 h inst|inst7|inst1~feeder_combout $end
$var wire 1 i inst|inst7|inst1~regout $end
$var wire 1 j inst|inst7|inst2~feeder_combout $end
$var wire 1 k inst|inst7|inst2~regout $end
$var wire 1 l inst|inst7|inst3~feeder_combout $end
$var wire 1 m inst|inst7|inst3~regout $end
$var wire 1 n inst|inst|inst~feeder_combout $end
$var wire 1 o inst|inst|inst~regout $end
$var wire 1 p inst|inst|inst1~feeder_combout $end
$var wire 1 q inst|inst|inst1~regout $end
$var wire 1 r inst|inst|inst2~feeder_combout $end
$var wire 1 s inst|inst|inst2~regout $end
$var wire 1 t inst|inst|inst3~feeder_combout $end
$var wire 1 u inst|inst|inst3~regout $end
$var wire 1 v inst|inst1|inst~feeder_combout $end
$var wire 1 w inst|inst1|inst~regout $end
$var wire 1 x inst|inst1|inst1~regout $end
$var wire 1 y inst|inst1|inst2~feeder_combout $end
$var wire 1 z inst|inst1|inst2~regout $end
$var wire 1 { inst|inst1|inst3~feeder_combout $end
$var wire 1 | inst|inst1|inst3~regout $end
$var wire 1 } inst|inst2|inst~regout $end
$var wire 1 ~ inst|inst2|inst1~feeder_combout $end
$var wire 1 !! inst|inst2|inst1~regout $end
$var wire 1 "! inst|inst2|inst2~feeder_combout $end
$var wire 1 #! inst|inst2|inst2~regout $end
$var wire 1 $! inst|inst2|inst3~feeder_combout $end
$var wire 1 %! inst|inst2|inst3~regout $end
$var wire 1 &! inst|inst3|inst~feeder_combout $end
$var wire 1 '! inst|inst3|inst~regout $end
$var wire 1 (! inst|inst3|inst1~feeder_combout $end
$var wire 1 )! inst|inst3|inst1~regout $end
$var wire 1 *! inst|inst3|inst2~feeder_combout $end
$var wire 1 +! inst|inst3|inst2~regout $end
$var wire 1 ,! inst|inst3|inst3~feeder_combout $end
$var wire 1 -! inst|inst3|inst3~regout $end
$var wire 1 .! IN_C~combout [31] $end
$var wire 1 /! IN_C~combout [30] $end
$var wire 1 0! IN_C~combout [29] $end
$var wire 1 1! IN_C~combout [28] $end
$var wire 1 2! IN_C~combout [27] $end
$var wire 1 3! IN_C~combout [26] $end
$var wire 1 4! IN_C~combout [25] $end
$var wire 1 5! IN_C~combout [24] $end
$var wire 1 6! IN_C~combout [23] $end
$var wire 1 7! IN_C~combout [22] $end
$var wire 1 8! IN_C~combout [21] $end
$var wire 1 9! IN_C~combout [20] $end
$var wire 1 :! IN_C~combout [19] $end
$var wire 1 ;! IN_C~combout [18] $end
$var wire 1 <! IN_C~combout [17] $end
$var wire 1 =! IN_C~combout [16] $end
$var wire 1 >! IN_C~combout [15] $end
$var wire 1 ?! IN_C~combout [14] $end
$var wire 1 @! IN_C~combout [13] $end
$var wire 1 A! IN_C~combout [12] $end
$var wire 1 B! IN_C~combout [11] $end
$var wire 1 C! IN_C~combout [10] $end
$var wire 1 D! IN_C~combout [9] $end
$var wire 1 E! IN_C~combout [8] $end
$var wire 1 F! IN_C~combout [7] $end
$var wire 1 G! IN_C~combout [6] $end
$var wire 1 H! IN_C~combout [5] $end
$var wire 1 I! IN_C~combout [4] $end
$var wire 1 J! IN_C~combout [3] $end
$var wire 1 K! IN_C~combout [2] $end
$var wire 1 L! IN_C~combout [1] $end
$var wire 1 M! IN_C~combout [0] $end
$var wire 1 N! MIR~combout [35] $end
$var wire 1 O! MIR~combout [34] $end
$var wire 1 P! MIR~combout [33] $end
$var wire 1 Q! MIR~combout [32] $end
$var wire 1 R! MIR~combout [31] $end
$var wire 1 S! MIR~combout [30] $end
$var wire 1 T! MIR~combout [29] $end
$var wire 1 U! MIR~combout [28] $end
$var wire 1 V! MIR~combout [27] $end
$var wire 1 W! MIR~combout [26] $end
$var wire 1 X! MIR~combout [25] $end
$var wire 1 Y! MIR~combout [24] $end
$var wire 1 Z! MIR~combout [23] $end
$var wire 1 [! MIR~combout [22] $end
$var wire 1 \! MIR~combout [21] $end
$var wire 1 ]! MIR~combout [20] $end
$var wire 1 ^! MIR~combout [19] $end
$var wire 1 _! MIR~combout [18] $end
$var wire 1 `! MIR~combout [17] $end
$var wire 1 a! MIR~combout [16] $end
$var wire 1 b! MIR~combout [15] $end
$var wire 1 c! MIR~combout [14] $end
$var wire 1 d! MIR~combout [13] $end
$var wire 1 e! MIR~combout [12] $end
$var wire 1 f! MIR~combout [11] $end
$var wire 1 g! MIR~combout [10] $end
$var wire 1 h! MIR~combout [9] $end
$var wire 1 i! MIR~combout [8] $end
$var wire 1 j! MIR~combout [7] $end
$var wire 1 k! MIR~combout [6] $end
$var wire 1 l! MIR~combout [5] $end
$var wire 1 m! MIR~combout [4] $end
$var wire 1 n! MIR~combout [3] $end
$var wire 1 o! MIR~combout [2] $end
$var wire 1 p! MIR~combout [1] $end
$var wire 1 q! MIR~combout [0] $end
$upscope $end
$upscope $end
$enddefinitions $end
#0
$dumpvars
0!
b0 "
0#
b10000000 $
xD
xC
xB
xA
x@
x?
x>
x=
x<
x;
x:
x9
x8
x7
x6
x5
x4
x3
x2
x1
x0
x/
x.
x-
x,
x+
x*
x)
x(
x'
x&
x%
xE
0F
1G
xH
1I
1J
1K
0L
xM
xN
xO
0P
xQ
xR
xS
xT
xU
xV
xW
xX
xY
xZ
x[
x\
x]
x^
x_
x`
xa
xb
xc
xd
xe
xf
xg
xh
xi
xj
xk
xl
xm
xn
xo
xp
xq
xr
xs
xt
xu
xv
xw
xx
xy
xz
x{
x|
x}
x~
x!!
x"!
x#!
x$!
x%!
x&!
x'!
x(!
x)!
x*!
x+!
x,!
x-!
0M!
0L!
0K!
0J!
0I!
0H!
0G!
0F!
0E!
0D!
0C!
0B!
0A!
0@!
0?!
0>!
0=!
0<!
0;!
0:!
09!
08!
07!
06!
05!
04!
03!
02!
01!
00!
0/!
0.!
zq!
zp!
zo!
zn!
zm!
zl!
zk!
1j!
zi!
zh!
zg!
zf!
ze!
zd!
zc!
zb!
za!
z`!
z_!
z^!
z]!
z\!
z[!
zZ!
zY!
zX!
zW!
zV!
zU!
zT!
zS!
zR!
zQ!
zP!
zO!
zN!
$end
#135
0Q
#267
0-!
0+!
0)!
0'!
0%!
0#!
0!!
0}
0|
0z
0x
0w
0u
0s
0q
0o
0m
0k
0i
0g
0e
0c
0b
0`
0^
0\
0[
0Y
0W
0V
0T
0R
#1170
0M
#2099
0N
#3999
03
0)
#4018
0B
#4029
0-
#4038
0<
05
#4048
08
#4287
0+
#4369
06
#4370
0=
#4371
0?
00
#4372
01
#4390
04
#4391
0A
0,
#4392
07
#4399
0(
#4400
0&
#4401
0C
0/
0'
#4410
02
#4411
0:
09
0%
#4419
0@
#4420
0;
0*
#4431
0>
#4489
0D
#4610
0.
#5454
0X
0_
#5455
0j
0t
0{
0(!
#5463
0n
#5819
0a
#5904
0Z
#5905
0]
0l
0p
#5907
0O
0S
0U
0~
0"!
0$!
0*!
#5909
0d
0h
0&!
#5917
0,!
#5924
0f
#5926
0r
0v
0y
#50000
1!
0E
#51090
1L
#52260
1M
#53189
1N
#100000
b1 "
0!
1E
#100954
1M!
#101090
0L
#102260
0M
#103189
0N
#106871
1,!
#150000
1!
0E
#151090
1L
#152260
1M
#153189
1N
#200000
b11 "
b10 "
0!
1E
#200904
1L!
#200954
0M!
#201090
0L
#202260
0M
#203189
0N
#206811
1*!
#206871
0,!
#250000
1!
0E
#251090
1L
#252260
1M
#253189
1N
#300000
b11 "
0!
1E
#300954
1M!
#301090
0L
#302260
0M
#303189
0N
#306871
1,!
#350000
1!
0E
#351090
1L
#352260
1M
#353189
1N
#400000
b111 "
1#
b101 "
b100 "
0!
1E
#400904
0L!
#400954
0M!
#400955
1K!
#401090
0L
#401100
1P
#401235
1Q
#402260
0M
#403189
0N
#406410
1(!
#406811
0*!
#406871
0,!
#450000
1!
0E
#451090
1L
#452260
1M
#453189
1N
#455581
1)!
#459332
1B
#500000
b101 "
0!
1E
#500954
1M!
#501090
0L
#502260
0M
#503189
0N
#506871
1,!
#550000
1!
0E
#551090
1L
#552260
1M
#553189
1N
#555581
1-!
#559803
1D
#600000
b0 $
b111 "
b110 "
0!
1E
#600904
1L!
#600934
0j!
#600954
0M!
#601090
0L
#602260
0M
#603189
0N
#606811
1*!
#606871
0,!
#650000
1!
0E
#651090
1L
#700000
b111 "
0!
1E
#700954
1M!
#701090
0L
#706871
1,!
#750000
1!
0E
#751090
1L
#800000
b1111 "
b1011 "
0#
b1001 "
b1000 "
0!
1E
#800904
0L!
#800944
1J!
#800954
0M!
#800955
0K!
#801090
0L
#801100
0P
#801235
0Q
#803610
0)!
0-!
#806410
0(!
#806811
0*!
#806853
1&!
#806871
0,!
#807361
0B
#807832
0D
#850000
1!
0E
#851090
1L
#900000
b1001 "
0!
1E
#900954
1M!
#901090
0L
#906871
1,!
#950000
1!
0E
#951090
1L
#1000000
b1011 "
b1010 "
0!
1E
#1000904
1L!
#1000954
0M!
#1001090
0L
#1006811
1*!
#1006871
0,!
#1050000
1!
0E
#1051090
1L
#1100000
b1011 "
0!
1E
#1100954
1M!
#1101090
0L
#1106871
1,!
#1150000
1!
0E
#1151090
1L
#1200000
b10000000 $
b1111 "
1#
b1101 "
b1100 "
0!
1E
#1200904
0L!
#1200934
1j!
#1200954
0M!
#1200955
1K!
#1201090
0L
#1201100
1P
#1201235
1Q
#1206410
1(!
#1206811
0*!
#1206871
0,!
#1250000
1!
0E
#1251090
1L
#1252260
1M
#1253189
1N
#1255580
1'!
#1255581
1)!
#1259332
1B
#1259704
1A
#1300000
b1101 "
0!
1E
#1300954
1M!
#1301090
0L
#1302260
0M
#1303189
0N
#1306871
1,!
#1350000
1!
0E
#1351090
1L
#1352260
1M
#1353189
1N
#1355581
1-!
#1359803
1D
#1400000
b1111 "
b1110 "
0!
1E
#1400904
1L!
#1400954
0M!
#1401090
0L
#1402260
0M
#1403189
0N
#1406811
1*!
#1406871
0,!
#1450000
1!
0E
#1451090
1L
#1452260
1M
#1453189
1N
#1455581
0-!
#1455595
1+!
#1459729
1C
#1459803
0D
#1500000
b1111 "
0!
1E
#1500954
1M!
#1501090
0L
#1502260
0M
#1503189
0N
#1506871
1,!
#1550000
1!
0E
#1551090
1L
#1552260
1M
#1553189
1N
#1555581
1-!
#1559803
1D
