simulation/qsim/MIC1.msim.vcd
$comment
	File created using the following command:
		vcd file MIC1.msim.vcd -direction
$end
$date
	Sat Aug 03 17:46:13 2024
$end
$version
	ModelSim Version 10.1d
$end
$timescale
	1ps
$end
$scope module PC_vlg_vec_tst $end
$var reg 1 ! CLOCK $end
$var reg 32 " IN_C [31:0] $end
$var reg 1 # LOAD $end
$var reg 36 $ MIR [35:0] $end
$var wire 1 % OUT_B [31] $end
$var wire 1 & OUT_B [30] $end
$var wire 1 ' OUT_B [29] $end
$var wire 1 ( OUT_B [28] $end
$var wire 1 ) OUT_B [27] $end
$var wire 1 * OUT_B [26] $end
$var wire 1 + OUT_B [25] $end
$var wire 1 , OUT_B [24] $end
$var wire 1 - OUT_B [23] $end
$var wire 1 . OUT_B [22] $end
$var wire 1 / OUT_B [21] $end
$var wire 1 0 OUT_B [20] $end
$var wire 1 1 OUT_B [19] $end
$var wire 1 2 OUT_B [18] $end
$var wire 1 3 OUT_B [17] $end
$var wire 1 4 OUT_B [16] $end
$var wire 1 5 OUT_B [15] $end
$var wire 1 6 OUT_B [14] $end
$var wire 1 7 OUT_B [13] $end
$var wire 1 8 OUT_B [12] $end
$var wire 1 9 OUT_B [11] $end
$var wire 1 : OUT_B [10] $end
$var wire 1 ; OUT_B [9] $end
$var wire 1 < OUT_B [8] $end
$var wire 1 = OUT_B [7] $end
$var wire 1 > OUT_B [6] $end
$var wire 1 ? OUT_B [5] $end
$var wire 1 @ OUT_B [4] $end
$var wire 1 A OUT_B [3] $end
$var wire 1 B OUT_B [2] $end
$var wire 1 C OUT_B [1] $end
$var wire 1 D OUT_B [0] $end
$var wire 1 E PROGRAM_COUNTER [31] $end
$var wire 1 F PROGRAM_COUNTER [30] $end
$var wire 1 G PROGRAM_COUNTER [29] $end
$var wire 1 H PROGRAM_COUNTER [28] $end
$var wire 1 I PROGRAM_COUNTER [27] $end
$var wire 1 J PROGRAM_COUNTER [26] $end
$var wire 1 K PROGRAM_COUNTER [25] $end
$var wire 1 L PROGRAM_COUNTER [24] $end
$var wire 1 M PROGRAM_COUNTER [23] $end
$var wire 1 N PROGRAM_COUNTER [22] $end
$var wire 1 O PROGRAM_COUNTER [21] $end
$var wire 1 P PROGRAM_COUNTER [20] $end
$var wire 1 Q PROGRAM_COUNTER [19] $end
$var wire 1 R PROGRAM_COUNTER [18] $end
$var wire 1 S PROGRAM_COUNTER [17] $end
$var wire 1 T PROGRAM_COUNTER [16] $end
$var wire 1 U PROGRAM_COUNTER [15] $end
$var wire 1 V PROGRAM_COUNTER [14] $end
$var wire 1 W PROGRAM_COUNTER [13] $end
$var wire 1 X PROGRAM_COUNTER [12] $end
$var wire 1 Y PROGRAM_COUNTER [11] $end
$var wire 1 Z PROGRAM_COUNTER [10] $end
$var wire 1 [ PROGRAM_COUNTER [9] $end
$var wire 1 \ PROGRAM_COUNTER [8] $end
$var wire 1 ] PROGRAM_COUNTER [7] $end
$var wire 1 ^ PROGRAM_COUNTER [6] $end
$var wire 1 _ PROGRAM_COUNTER [5] $end
$var wire 1 ` PROGRAM_COUNTER [4] $end
$var wire 1 a PROGRAM_COUNTER [3] $end
$var wire 1 b PROGRAM_COUNTER [2] $end
$var wire 1 c PROGRAM_COUNTER [1] $end
$var wire 1 d PROGRAM_COUNTER [0] $end
$var wire 1 e sampler $end
$scope module i1 $end
$var wire 1 f gnd $end
$var wire 1 g vcc $end
$var wire 1 h unknown $end
$var tri1 1 i devclrn $end
$var tri1 1 j devpor $end
$var tri1 1 k devoe $end
$var wire 1 l CLOCK~combout $end
$var wire 1 m inst|inst12~combout $end
$var wire 1 n inst|inst12~clkctrl_outclk $end
$var wire 1 o inst|inst5|inst~feeder_combout $end
$var wire 1 p LOAD~combout $end
$var wire 1 q LOAD~clkctrl_outclk $end
$var wire 1 r inst|inst5|inst~regout $end
$var wire 1 s inst4~0_combout $end
$var wire 1 t inst|inst5|inst1~regout $end
$var wire 1 u inst|inst5|inst2~regout $end
$var wire 1 v inst|inst5|inst3~feeder_combout $end
$var wire 1 w inst|inst5|inst3~regout $end
$var wire 1 x inst|inst4|inst~feeder_combout $end
$var wire 1 y inst|inst4|inst~regout $end
$var wire 1 z inst|inst4|inst1~feeder_combout $end
$var wire 1 { inst|inst4|inst1~regout $end
$var wire 1 | inst|inst4|inst2~regout $end
$var wire 1 } inst|inst4|inst3~feeder_combout $end
$var wire 1 ~ inst|inst4|inst3~regout $end
$var wire 1 !! inst|inst6|inst~feeder_combout $end
$var wire 1 "! inst|inst6|inst~regout $end
$var wire 1 #! inst|inst6|inst1~regout $end
$var wire 1 $! inst|inst6|inst2~feeder_combout $end
$var wire 1 %! inst|inst6|inst2~regout $end
$var wire 1 &! inst|inst6|inst3~feeder_combout $end
$var wire 1 '! inst|inst6|inst3~regout $end
$var wire 1 (! inst|inst7|inst~feeder_combout $end
$var wire 1 )! inst|inst7|inst~regout $end
$var wire 1 *! inst|inst7|inst1~feeder_combout $end
$var wire 1 +! inst|inst7|inst1~regout $end
$var wire 1 ,! inst|inst7|inst2~regout $end
$var wire 1 -! inst|inst7|inst3~feeder_combout $end
$var wire 1 .! inst|inst7|inst3~regout $end
$var wire 1 /! inst|inst|inst~regout $end
$var wire 1 0! inst|inst|inst1~feeder_combout $end
$var wire 1 1! inst|inst|inst1~regout $end
$var wire 1 2! inst|inst|inst2~feeder_combout $end
$var wire 1 3! inst|inst|inst2~regout $end
$var wire 1 4! inst|inst|inst3~feeder_combout $end
$var wire 1 5! inst|inst|inst3~regout $end
$var wire 1 6! inst|inst1|inst~feeder_combout $end
$var wire 1 7! inst|inst1|inst~regout $end
$var wire 1 8! inst|inst1|inst1~feeder_combout $end
$var wire 1 9! inst|inst1|inst1~regout $end
$var wire 1 :! inst|inst1|inst2~feeder_combout $end
$var wire 1 ;! inst|inst1|inst2~regout $end
$var wire 1 <! inst|inst1|inst3~feeder_combout $end
$var wire 1 =! inst|inst1|inst3~regout $end
$var wire 1 >! inst|inst2|inst~feeder_combout $end
$var wire 1 ?! inst|inst2|inst~regout $end
$var wire 1 @! inst|inst2|inst1~regout $end
$var wire 1 A! inst|inst2|inst2~feeder_combout $end
$var wire 1 B! inst|inst2|inst2~regout $end
$var wire 1 C! inst|inst2|inst3~feeder_combout $end
$var wire 1 D! inst|inst2|inst3~regout $end
$var wire 1 E! inst|inst3|inst~feeder_combout $end
$var wire 1 F! inst|inst3|inst~regout $end
$var wire 1 G! inst|inst3|inst1~feeder_combout $end
$var wire 1 H! inst|inst3|inst1~regout $end
$var wire 1 I! inst|inst3|inst2~feeder_combout $end
$var wire 1 J! inst|inst3|inst2~regout $end
$var wire 1 K! inst|inst3|inst3~regout $end
$var wire 1 L! MIR~combout [35] $end
$var wire 1 M! MIR~combout [34] $end
$var wire 1 N! MIR~combout [33] $end
$var wire 1 O! MIR~combout [32] $end
$var wire 1 P! MIR~combout [31] $end
$var wire 1 Q! MIR~combout [30] $end
$var wire 1 R! MIR~combout [29] $end
$var wire 1 S! MIR~combout [28] $end
$var wire 1 T! MIR~combout [27] $end
$var wire 1 U! MIR~combout [26] $end
$var wire 1 V! MIR~combout [25] $end
$var wire 1 W! MIR~combout [24] $end
$var wire 1 X! MIR~combout [23] $end
$var wire 1 Y! MIR~combout [22] $end
$var wire 1 Z! MIR~combout [21] $end
$var wire 1 [! MIR~combout [20] $end
$var wire 1 \! MIR~combout [19] $end
$var wire 1 ]! MIR~combout [18] $end
$var wire 1 ^! MIR~combout [17] $end
$var wire 1 _! MIR~combout [16] $end
$var wire 1 `! MIR~combout [15] $end
$var wire 1 a! MIR~combout [14] $end
$var wire 1 b! MIR~combout [13] $end
$var wire 1 c! MIR~combout [12] $end
$var wire 1 d! MIR~combout [11] $end
$var wire 1 e! MIR~combout [10] $end
$var wire 1 f! MIR~combout [9] $end
$var wire 1 g! MIR~combout [8] $end
$var wire 1 h! MIR~combout [7] $end
$var wire 1 i! MIR~combout [6] $end
$var wire 1 j! MIR~combout [5] $end
$var wire 1 k! MIR~combout [4] $end
$var wire 1 l! MIR~combout [3] $end
$var wire 1 m! MIR~combout [2] $end
$var wire 1 n! MIR~combout [1] $end
$var wire 1 o! MIR~combout [0] $end
$var wire 1 p! IN_C~combout [31] $end
$var wire 1 q! IN_C~combout [30] $end
$var wire 1 r! IN_C~combout [29] $end
$var wire 1 s! IN_C~combout [28] $end
$var wire 1 t! IN_C~combout [27] $end
$var wire 1 u! IN_C~combout [26] $end
$var wire 1 v! IN_C~combout [25] $end
$var wire 1 w! IN_C~combout [24] $end
$var wire 1 x! IN_C~combout [23] $end
$var wire 1 y! IN_C~combout [22] $end
$var wire 1 z! IN_C~combout [21] $end
$var wire 1 {! IN_C~combout [20] $end
$var wire 1 |! IN_C~combout [19] $end
$var wire 1 }! IN_C~combout [18] $end
$var wire 1 ~! IN_C~combout [17] $end
$var wire 1 !" IN_C~combout [16] $end
$var wire 1 "" IN_C~combout [15] $end
$var wire 1 #" IN_C~combout [14] $end
$var wire 1 $" IN_C~combout [13] $end
$var wire 1 %" IN_C~combout [12] $end
$var wire 1 &" IN_C~combout [11] $end
$var wire 1 '" IN_C~combout [10] $end
$var wire 1 (" IN_C~combout [9] $end
$var wire 1 )" IN_C~combout [8] $end
$var wire 1 *" IN_C~combout [7] $end
$var wire 1 +" IN_C~combout [6] $end
$var wire 1 ," IN_C~combout [5] $end
$var wire 1 -" IN_C~combout [4] $end
$var wire 1 ." IN_C~combout [3] $end
$var wire 1 /" IN_C~combout [2] $end
$var wire 1 0" IN_C~combout [1] $end
$var wire 1 1" IN_C~combout [0] $end
$upscope $end
$upscope $end
$enddefinitions $end
#0
$dumpvars
1!
b0 "
1#
b1 $
xD
xC
xB
xA
x@
x?
x>
x=
x<
x;
x:
x9
x8
x7
x6
x5
x4
x3
x2
x1
x0
x/
x.
x-
x,
x+
x*
x)
x(
x'
x&
x%
xd
xc
xb
xa
x`
x_
x^
x]
x\
x[
xZ
xY
xX
xW
xV
xU
xT
xS
xR
xQ
xP
xO
xN
xM
xL
xK
xJ
xI
xH
xG
xF
xE
xe
0f
1g
xh
1i
1j
1k
1l
xm
xn
xo
1p
xq
xr
xs
xt
xu
xv
xw
xx
xy
xz
x{
x|
x}
x~
x!!
x"!
x#!
x$!
x%!
x&!
x'!
x(!
x)!
x*!
x+!
x,!
x-!
x.!
x/!
x0!
x1!
x2!
x3!
x4!
x5!
x6!
x7!
x8!
x9!
x:!
x;!
x<!
x=!
x>!
x?!
x@!
xA!
xB!
xC!
xD!
xE!
xF!
xG!
xH!
xI!
xJ!
xK!
1o!
0n!
0m!
0l!
zk!
zj!
zi!
zh!
zg!
0f!
ze!
zd!
zc!
zb!
za!
z`!
z_!
z^!
z]!
z\!
z[!
zZ!
zY!
zX!
zW!
zV!
zU!
zT!
zS!
zR!
zQ!
zP!
zO!
zN!
zM!
zL!
01"
00"
0/"
0."
0-"
0,"
0+"
0*"
0)"
0("
0'"
0&"
0%"
0$"
0#"
0""
0!"
0~!
0}!
0|!
0{!
0z!
0y!
0x!
0w!
0v!
0u!
0t!
0s!
0r!
0q!
0p!
$end
#135
1q
#267
0K!
0J!
0H!
0F!
0D!
0B!
0@!
0?!
0=!
0;!
09!
07!
05!
03!
01!
0/!
0.!
0,!
0+!
0)!
0'!
0%!
0#!
0"!
0~
0|
0{
0y
0w
0u
0t
0r
#3987
0J
#3999
0O
#4009
0H
#4038
0[
0Q
#4059
0R
#4284
0I
#4287
0K
#4301
0F
#4371
0`
0E
#4379
0^
#4381
0N
#4382
0a
#4391
0\
0c
0Z
0U
#4398
0W
#4401
0V
0P
#4410
0S
#4411
0]
0M
0G
#4419
0_
0X
0T
#4420
0L
#4421
0b
#4431
0d
#4439
0Y
#5455
0(!
#5456
0z
#5457
0v
0$!
0*!
#5459
0x
#5466
0:!
#5905
0o
0}
08!
0A!
#5906
0<!
#5907
00!
06!
#5908
04!
0C!
0E!
0G!
#5909
0!!
0&!
0-!
02!
0>!
#5928
0I!
#6625
1s
#6651
0m
#7580
0n
#12068
0<
#12073
0@
#12109
00
#12137
0'
#12143
06
#12151
0.
#12798
03
#12816
09
#13340
01
#13656
0?
#13677
0&
#13759
0)
#14343
0B
#14372
07
#14455
0(
#14886
0+
#15053
0-
#15270
0=
#15340
05
#15362
0>
#15372
0*
#15381
08
#15434
04
#15452
02
#15554
0;
#15681
0C
#15737
0,
#15747
0%
#15784
0/
#15953
0:
#15984
0D
#16315
0A
#50000
0!
0e
#51090
0l
#75000
b1 "
1e
#75934
11"
#100000
1!
0e
#101090
1l
#150000
b11 "
b10 "
0!
1e
#150934
01"
#150944
10"
#151090
0l
#156872
1I!
#200000
b1000000001 $
1!
0e
#200924
1f!
#201090
1l
#207575
1m
#208504
1n
#210895
1J!
#215019
1c
1C
#225000
b11 "
1e
#225934
11"
#250000
0!
0e
#251090
0l
#252260
0m
#253189
0n
#300000
b111 "
b101 "
b100 "
1!
1e
#300934
01"
#300944
1/"
00"
#301090
1l
#302260
1m
#303189
1n
#305595
1K!
#306852
1G!
#306872
0I!
#309759
1d
1D
#340000
b1000000101 $
b1000000111 $
0e
#340904
1n!
#340934
1m!
#346775
0s
#350000
0!
1e
#351090
0l
#351779
z<
#351784
z@
#351820
z0
#351848
z'
#351854
z6
#351862
z.
#352260
0m
#352509
z3
#352527
z9
#353031
z1
#353189
0n
#353367
z?
#353368
z&
#353450
z)
#354054
zB
#354083
z7
#354146
z(
#354577
z+
#354764
z-
#354981
z=
#355051
z5
#355063
z*
#355073
z>
#355092
z8
#355143
z2
#355145
z4
#355245
z;
#355392
zC
#355448
z,
#355458
z%
#355475
z/
#355664
z:
#355695
zD
#356026
zA
#375000
b101 "
0e
#375934
11"
#390000
b1000000011 $
b1000000001 $
1e
#390904
0n!
#390934
0m!
#397172
1s
#400000
b1 $
1!
0e
#400924
0f!
#401090
1l
#402260
1m
#402615
0<
#402620
0@
#402656
00
#402684
0'
#402690
06
#402698
0.
#403189
1n
#403345
03
#403363
09
#403887
01
#404203
0?
#404224
0&
#404306
0)
#404890
0B
#404919
07
#405002
0(
#405433
0+
#405580
0J!
#405600
0-
#405605
1H!
#405817
0=
#405887
05
#405909
0>
#405919
0*
#405928
08
#405981
04
#405999
02
#406101
0;
#406228
1C
#406284
0,
#406294
0%
#406331
0/
#406500
0:
#406531
1D
#406862
0A
#407575
0m
#408504
0n
#409704
0c
0C
#409759
1b
1B
#420000
b101 $
1e
#420934
1m!
#426775
0s
#431779
z<
#431784
z@
#431820
z0
#431848
z'
#431854
z6
#431862
z.
#432509
z3
#432527
z9
#433031
z1
#433367
z?
#433368
z&
#433450
z)
#434054
zB
#434083
z7
#434146
z(
#434577
z+
#434764
z-
#434981
z=
#435051
z5
#435063
z*
#435073
z>
#435092
z8
#435143
z2
#435145
z4
#435245
z;
#435392
zC
#435448
z,
#435458
z%
#435475
z/
#435664
z:
#435695
zD
#436026
zA
#440000
b1 $
0e
#440934
0m!
#446775
1s
#450000
b111 "
b110 "
0!
1e
#450934
01"
#450944
10"
#451090
0l
#452218
0<
#452223
0@
#452259
00
#452287
0'
#452293
06
#452301
0.
#452948
03
#452966
09
#453490
01
#453806
0?
#453827
0&
#453909
0)
#454493
1B
#454522
07
#454605
0(
#455036
0+
#455203
0-
#455420
0=
#455490
05
#455512
0>
#455522
0*
#455531
08
#455584
04
#455602
02
#455704
0;
#455831
0C
#455887
0,
#455897
0%
#455934
0/
#456103
0:
#456134
1D
#456465
0A
#456872
1I!
#470000
b1001 $
b1101 $
0e
#470934
1l!
1m!
#476775
0s
#481779
z<
#481784
z@
#481820
z0
#481848
z'
#481854
z6
#481862
z.
#482509
z3
#482527
z9
#483031
z1
#483367
z?
#483368
z&
#483450
z)
#484054
zB
#484083
z7
#484146
z(
#484577
z+
#484764
z-
#484981
z=
#485051
z5
#485063
z*
#485073
z>
#485092
z8
#485143
z2
#485145
z4
#485245
z;
#485392
zC
#485448
z,
#485458
z%
#485475
z/
#485664
z:
#485695
zD
#486026
zA
#500000
1!
1e
#501090
1l
#525000
b111 "
0e
#525934
11"
#550000
0!
1e
#551090
0l
#570000
b1111 $
b111 $
b11 $
0e
#570904
1n!
#570934
0l!
0m!
#590000
b1 $
1e
#590904
0n!
#597172
1s
#600000
b1111 "
b1011 "
b1000000001 $
b1001 "
b1000 "
1!
0e
#600924
1f!
#600934
01"
#600944
0/"
00"
#600954
1."
#601090
1l
#602615
0<
#602620
0@
#602656
00
#602684
0'
#602690
06
#602698
0.
#603345
03
#603363
09
#603887
01
#604203
0?
#604224
0&
#604306
0)
#604890
1B
#604919
07
#605002
0(
#605433
0+
#605600
0-
#605817
0=
#605887
05
#605909
0>
#605919
0*
#605928
08
#605981
04
#605999
02
#606101
0;
#606228
0C
#606284
0,
#606294
0%
#606331
0/
#606500
0:
#606531
1D
#606852
0G!
#606862
0A
1E!
#606872
0I!
#607575
1m
#608504
1n
#610910
0K!
#610920
0H!
#610935
1F!
#615050
1a
1A
#615074
0b
0B
0d
0D
#650000
0!
1e
#651090
0l
#652260
0m
#653189
0n
#675000
b1001 "
0e
#675934
11"
#700000
1!
1e
#701090
1l
#702260
1m
#703189
1n
#705595
1K!
#709759
1d
1D
#750000
b1011 "
b1010 "
0!
0e
#750934
01"
#750944
10"
#751090
0l
#752260
0m
#753189
0n
#756872
1I!
#800000
b1 $
1!
1e
#800924
0f!
#801090
1l
#802260
1m
#803189
1n
#805580
1J!
#805595
0K!
#807575
0m
#808504
0n
#809704
1c
1C
#809759
0d
0D
#825000
b1011 "
0e
#825934
11"
#850000
0!
1e
#851090
0l
#900000
b1111 "
b1101 "
b1100 "
1!
0e
#900934
01"
#900944
1/"
00"
#901090
1l
#906852
1G!
#906872
0I!
#950000
0!
1e
#951090
0l
#975000
b1101 "
0e
#975934
11"
#1000000
b1000000001 $
1!
1e
#1000924
1f!
#1001090
1l
#1007575
1m
#1008504
1n
#1010895
0J!
#1010910
1K!
#1010920
1H!
#1015019
0c
0C
#1015074
1b
1B
1d
1D
#1050000
b1111 "
b1110 "
0!
0e
#1050934
01"
#1050944
10"
#1051090
0l
#1052260
0m
#1053189
0n
#1056872
1I!
#1100000
1!
1e
#1101090
1l
#1102260
1m
#1103189
1n
#1105580
1J!
#1105595
0K!
#1109704
1c
1C
#1109759
0d
0D
#1125000
b1111 "
0e
#1125934
11"
#1150000
0!
1e
#1151090
0l
#1152260
0m
#1153189
0n
#1200000
b11111 "
b10111 "
b10011 "
b1 $
b10001 "
b10000 "
1!
0e
#1200924
0f!
#1200934
1-"
01"
#1200944
0/"
00"
#1200954
0."
#1201090
1l
#1202260
1m
#1203189
1n
#1205595
1K!
#1206842
1C!
#1206852
0G!
#1206862
0E!
#1206872
0I!
#1207575
0m
#1208504
0n
#1209759
1d
1D
#1210000
0#
1e
#1211100
0p
#1211235
0q
#1213609
0J!
#1213624
0K!
#1213634
0H!
#1213649
0F!
#1217733
0c
0C
#1217764
0a
0A
#1217788
0b
0B
0d
0D
#1250000
0!
0e
#1251090
0l
#1275000
b10001 "
1e
#1275934
11"
#1300000
1!
0e
#1301090
1l
#1350000
b10011 "
b10010 "
0!
1e
#1350934
01"
#1350944
10"
#1351090
0l
#1356872
1I!
#1400000
b1000000001 $
1!
0e
#1400924
1f!
#1401090
1l
#1407575
1m
#1408504
1n
#1425000
b10011 "
1e
#1425934
11"
#1450000
0!
0e
#1451090
0l
#1452260
0m
#1453189
0n
#1500000
b10111 "
b10101 "
b10100 "
1!
1e
#1500934
01"
#1500944
1/"
00"
#1501090
1l
#1502260
1m
#1503189
1n
#1506852
1G!
#1506872
0I!
#1550000
0!
0e
#1551090
0l
#1552260
0m
#1553189
0n
#1575000
b10101 "
1e
#1575934
11"
