simulation/qsim/MIC1.msim.vcd
$comment
	File created using the following command:
		vcd file MIC1.msim.vcd -direction
$end
$date
	Sat Aug 03 13:59:06 2024
$end
$version
	ModelSim Version 10.1d
$end
$timescale
	1ps
$end
$scope module ula_32bit_vlg_vec_tst $end
$var reg 32 ! A [31:0] $end
$var reg 32 " B [31:0] $end
$var reg 36 # MIR [35:0] $end
$var wire 1 $ C [31] $end
$var wire 1 % C [30] $end
$var wire 1 & C [29] $end
$var wire 1 ' C [28] $end
$var wire 1 ( C [27] $end
$var wire 1 ) C [26] $end
$var wire 1 * C [25] $end
$var wire 1 + C [24] $end
$var wire 1 , C [23] $end
$var wire 1 - C [22] $end
$var wire 1 . C [21] $end
$var wire 1 / C [20] $end
$var wire 1 0 C [19] $end
$var wire 1 1 C [18] $end
$var wire 1 2 C [17] $end
$var wire 1 3 C [16] $end
$var wire 1 4 C [15] $end
$var wire 1 5 C [14] $end
$var wire 1 6 C [13] $end
$var wire 1 7 C [12] $end
$var wire 1 8 C [11] $end
$var wire 1 9 C [10] $end
$var wire 1 : C [9] $end
$var wire 1 ; C [8] $end
$var wire 1 < C [7] $end
$var wire 1 = C [6] $end
$var wire 1 > C [5] $end
$var wire 1 ? C [4] $end
$var wire 1 @ C [3] $end
$var wire 1 A C [2] $end
$var wire 1 B C [1] $end
$var wire 1 C C [0] $end
$var wire 1 D COUT $end
$var wire 1 E N $end
$var wire 1 F S [31] $end
$var wire 1 G S [30] $end
$var wire 1 H S [29] $end
$var wire 1 I S [28] $end
$var wire 1 J S [27] $end
$var wire 1 K S [26] $end
$var wire 1 L S [25] $end
$var wire 1 M S [24] $end
$var wire 1 N S [23] $end
$var wire 1 O S [22] $end
$var wire 1 P S [21] $end
$var wire 1 Q S [20] $end
$var wire 1 R S [19] $end
$var wire 1 S S [18] $end
$var wire 1 T S [17] $end
$var wire 1 U S [16] $end
$var wire 1 V S [15] $end
$var wire 1 W S [14] $end
$var wire 1 X S [13] $end
$var wire 1 Y S [12] $end
$var wire 1 Z S [11] $end
$var wire 1 [ S [10] $end
$var wire 1 \ S [9] $end
$var wire 1 ] S [8] $end
$var wire 1 ^ S [7] $end
$var wire 1 _ S [6] $end
$var wire 1 ` S [5] $end
$var wire 1 a S [4] $end
$var wire 1 b S [3] $end
$var wire 1 c S [2] $end
$var wire 1 d S [1] $end
$var wire 1 e S [0] $end
$var wire 1 f Z $end
$var wire 1 g sampler $end
$scope module i1 $end
$var wire 1 h gnd $end
$var wire 1 i vcc $end
$var wire 1 j unknown $end
$var tri1 1 k devclrn $end
$var tri1 1 l devpor $end
$var tri1 1 m devoe $end
$var wire 1 n inst4|inst4|inst2~combout $end
$var wire 1 o inst4|inst8|inst2~combout $end
$var wire 1 p inst4|inst5|inst10|inst3~0_combout $end
$var wire 1 q inst4|inst6|inst10|inst3~0_combout $end
$var wire 1 r inst3|inst7|inst~combout $end
$var wire 1 s inst3|inst6|inst2~combout $end
$var wire 1 t inst2|inst|inst2~combout $end
$var wire 1 u inst|inst7|inst~combout $end
$var wire 1 v inst|inst7|inst10|inst3~0_combout $end
$var wire 1 w inst|inst5|inst2~combout $end
$var wire 1 x inst|inst6|inst2~combout $end
$var wire 1 y inst|inst4|inst10|inst3~0_combout $end
$var wire 1 z inst2|inst4|inst10|inst4~0_combout $end
$var wire 1 { inst2|inst4|inst10|inst4~1_combout $end
$var wire 1 | inst3|inst2|inst10|inst4~combout $end
$var wire 1 } inst4|inst7|inst10|inst3~2_combout $end
$var wire 1 ~ inst4|inst7|inst10|inst3~3_combout $end
$var wire 1 !! inst4|inst|inst10|inst4~3_combout $end
$var wire 1 "! inst4|inst3|inst8~0_combout $end
$var wire 1 #! inst3|inst3|inst10|inst~combout $end
$var wire 1 $! inst4|inst|inst2~combout $end
$var wire 1 %! inst4|inst6|inst10|inst4~combout $end
$var wire 1 &! inst4|inst6|inst~combout $end
$var wire 1 '! inst3|inst8|inst~combout $end
$var wire 1 (! inst|inst8|inst~combout $end
$var wire 1 )! inst1|inst18[27]~12_combout $end
$var wire 1 *! inst1|inst18[24]~16_combout $end
$var wire 1 +! inst1|inst18[18]~22_combout $end
$var wire 1 ,! inst1|inst9~0_combout $end
$var wire 1 -! inst1|inst9~1_combout $end
$var wire 1 .! inst1|inst9~2_combout $end
$var wire 1 /! inst1|inst9~3_combout $end
$var wire 1 0! inst1|inst9~4_combout $end
$var wire 1 1! inst4|inst|inst10|inst4~5_combout $end
$var wire 1 2! inst|inst7|inst6|inst2~0_combout $end
$var wire 1 3! inst4|inst3|inst~combout $end
$var wire 1 4! inst4|inst4|inst~combout $end
$var wire 1 5! inst4|inst2|inst2~combout $end
$var wire 1 6! inst4|inst|inst10|inst4~2_combout $end
$var wire 1 7! inst4|inst|inst~combout $end
$var wire 1 8! inst4|inst|inst10|inst4~4_combout $end
$var wire 1 9! inst4|inst2|inst~combout $end
$var wire 1 :! inst4|inst2|inst10|inst4~combout $end
$var wire 1 ;! inst4|inst4|inst10|inst4~combout $end
$var wire 1 <! inst4|inst3|inst2~combout $end
$var wire 1 =! inst4|inst3|inst10|inst4~combout $end
$var wire 1 >! inst4|inst3|inst10|inst~combout $end
$var wire 1 ?! inst4|inst3|inst8~1_combout $end
$var wire 1 @! inst3|inst3|inst~combout $end
$var wire 1 A! inst3|inst3|inst2~combout $end
$var wire 1 B! inst3|inst3|inst8~0_combout $end
$var wire 1 C! inst3|inst4|inst2~combout $end
$var wire 1 D! inst3|inst4|inst~combout $end
$var wire 1 E! inst3|inst4|inst10|inst4~combout $end
$var wire 1 F! inst3|inst3|inst8~1_combout $end
$var wire 1 G! inst1|inst18[31]~8_combout $end
$var wire 1 H! inst4|inst4|inst10|inst~combout $end
$var wire 1 I! inst4|inst4|inst8~0_combout $end
$var wire 1 J! inst4|inst4|inst8~1_combout $end
$var wire 1 K! inst4|inst2|inst8~0_combout $end
$var wire 1 L! inst4|inst2|inst10|inst~combout $end
$var wire 1 M! inst4|inst2|inst8~1_combout $end
$var wire 1 N! inst4|inst7|inst2~combout $end
$var wire 1 O! inst4|inst7|inst~combout $end
$var wire 1 P! inst4|inst7|inst10|inst4~combout $end
$var wire 1 Q! inst4|inst|inst10|inst~combout $end
$var wire 1 R! inst4|inst|inst8~0_combout $end
$var wire 1 S! inst4|inst|inst8~1_combout $end
$var wire 1 T! inst4|inst8|inst~combout $end
$var wire 1 U! inst4|inst5|inst2~combout $end
$var wire 1 V! inst4|inst5|inst10|inst2~combout $end
$var wire 1 W! inst3|inst3|inst3~combout $end
$var wire 1 X! inst3|inst3|inst10|inst3~0_combout $end
$var wire 1 Y! inst3|inst3|inst10|inst2~combout $end
$var wire 1 Z! inst4|inst6|inst10|inst3~combout $end
$var wire 1 [! inst4|inst6|inst2~combout $end
$var wire 1 \! inst4|inst6|inst10|inst2~combout $end
$var wire 1 ]! inst4|inst5|inst10|inst4~combout $end
$var wire 1 ^! inst4|inst8|inst10|inst4~combout $end
$var wire 1 _! inst4|inst7|inst8~0_combout $end
$var wire 1 `! inst4|inst7|inst10|inst~combout $end
$var wire 1 a! inst4|inst7|inst8~1_combout $end
$var wire 1 b! inst4|inst8|inst10|inst~combout $end
$var wire 1 c! inst4|inst8|inst8~0_combout $end
$var wire 1 d! inst4|inst8|inst8~1_combout $end
$var wire 1 e! inst4|inst5|inst~combout $end
$var wire 1 f! inst4|inst5|inst8~0_combout $end
$var wire 1 g! inst4|inst5|inst10|inst5~combout $end
$var wire 1 h! inst4|inst5|inst8~1_combout $end
$var wire 1 i! inst3|inst3|inst10|inst4~combout $end
$var wire 1 j! inst4|inst6|inst10|inst~combout $end
$var wire 1 k! inst4|inst6|inst8~0_combout $end
$var wire 1 l! inst4|inst6|inst8~1_combout $end
$var wire 1 m! inst3|inst4|inst10|inst5~combout $end
$var wire 1 n! inst3|inst4|inst8~0_combout $end
$var wire 1 o! inst3|inst4|inst8~1_combout $end
$var wire 1 p! inst3|inst2|inst2~combout $end
$var wire 1 q! inst3|inst2|inst~combout $end
$var wire 1 r! inst3|inst2|inst8~0_combout $end
$var wire 1 s! inst3|inst5|inst~combout $end
$var wire 1 t! inst2|inst3|inst2~combout $end
$var wire 1 u! inst2|inst4|inst10|inst4~2_combout $end
$var wire 1 v! inst2|inst4|inst2~combout $end
$var wire 1 w! inst2|inst4|inst10|inst4~3_combout $end
$var wire 1 x! inst2|inst3|inst10|inst4~combout $end
$var wire 1 y! inst3|inst6|inst~combout $end
$var wire 1 z! inst3|inst6|inst10|inst4~combout $end
$var wire 1 {! inst3|inst8|inst2~combout $end
$var wire 1 |! inst3|inst8|inst10|inst3~0_combout $end
$var wire 1 }! inst3|inst8|inst10|inst3~1_combout $end
$var wire 1 ~! inst3|inst7|inst2~combout $end
$var wire 1 !" inst3|inst8|inst10|inst2~combout $end
$var wire 1 "" inst3|inst7|inst10|inst4~0_combout $end
$var wire 1 #" inst3|inst7|inst10|inst4~1_combout $end
$var wire 1 $" inst3|inst|inst2~combout $end
$var wire 1 %" inst3|inst|inst10|inst4~combout $end
$var wire 1 &" inst3|inst2|inst10|inst5~combout $end
$var wire 1 '" inst3|inst2|inst8~1_combout $end
$var wire 1 (" inst3|inst|inst~combout $end
$var wire 1 )" inst3|inst|inst8~0_combout $end
$var wire 1 *" inst3|inst|inst10|inst5~combout $end
$var wire 1 +" inst3|inst|inst8~1_combout $end
$var wire 1 ," inst3|inst7|inst8~0_combout $end
$var wire 1 -" inst3|inst8|inst10|inst4~combout $end
$var wire 1 ." inst3|inst7|inst10|inst~combout $end
$var wire 1 /" inst3|inst7|inst8~1_combout $end
$var wire 1 0" inst3|inst8|inst10|inst~combout $end
$var wire 1 1" inst3|inst8|inst8~0_combout $end
$var wire 1 2" inst3|inst5|inst2~combout $end
$var wire 1 3" inst3|inst5|inst10|inst4~combout $end
$var wire 1 4" inst3|inst8|inst8~1_combout $end
$var wire 1 5" inst3|inst5|inst8~0_combout $end
$var wire 1 6" inst3|inst5|inst10|inst~combout $end
$var wire 1 7" inst3|inst5|inst8~1_combout $end
$var wire 1 8" inst3|inst6|inst10|inst~combout $end
$var wire 1 9" inst3|inst6|inst8~0_combout $end
$var wire 1 :" inst3|inst6|inst8~1_combout $end
$var wire 1 ;" inst2|inst3|inst~combout $end
$var wire 1 <" inst2|inst3|inst8~0_combout $end
$var wire 1 =" inst2|inst3|inst10|inst5~combout $end
$var wire 1 >" inst2|inst3|inst8~1_combout $end
$var wire 1 ?" inst2|inst4|inst~combout $end
$var wire 1 @" inst2|inst4|inst10|inst~combout $end
$var wire 1 A" inst2|inst4|inst8~0_combout $end
$var wire 1 B" inst2|inst2|inst2~combout $end
$var wire 1 C" inst2|inst2|inst~combout $end
$var wire 1 D" inst2|inst2|inst10|inst4~combout $end
$var wire 1 E" inst2|inst4|inst8~1_combout $end
$var wire 1 F" inst2|inst2|inst10|inst~combout $end
$var wire 1 G" inst2|inst|inst~combout $end
$var wire 1 H" inst2|inst7|inst~combout $end
$var wire 1 I" inst2|inst8|inst2~combout $end
$var wire 1 J" inst2|inst5|inst2~combout $end
$var wire 1 K" inst2|inst6|inst2~combout $end
$var wire 1 L" inst|inst|inst2~combout $end
$var wire 1 M" inst|inst2|inst~combout $end
$var wire 1 N" inst|inst2|inst3~combout $end
$var wire 1 O" inst|inst4|inst10|inst3~1_combout $end
$var wire 1 P" inst|inst4|inst10|inst3~2_combout $end
$var wire 1 Q" inst|inst5|inst~combout $end
$var wire 1 R" inst|inst5|inst10|inst~combout $end
$var wire 1 S" inst|inst6|inst~combout $end
$var wire 1 T" inst|inst5|inst10|inst3~0_combout $end
$var wire 1 U" inst|inst5|inst10|inst2~combout $end
$var wire 1 V" inst|inst7|inst10|inst4~4_combout $end
$var wire 1 W" inst|inst7|inst10|inst4~5_combout $end
$var wire 1 X" inst|inst7|inst10|inst4~7_combout $end
$var wire 1 Y" inst|inst7|inst10|inst4~6_combout $end
$var wire 1 Z" inst|inst4|inst10|inst3~combout $end
$var wire 1 [" inst|inst4|inst10|inst2~combout $end
$var wire 1 \" inst|inst3|inst10|inst4~0_combout $end
$var wire 1 ]" inst|inst3|inst2~combout $end
$var wire 1 ^" inst|inst3|inst10|inst4~1_combout $end
$var wire 1 _" inst2|inst6|inst10|inst4~combout $end
$var wire 1 `" inst2|inst5|inst10|inst4~combout $end
$var wire 1 a" inst2|inst8|inst10|inst4~combout $end
$var wire 1 b" inst2|inst7|inst10|inst4~combout $end
$var wire 1 c" inst2|inst|inst10|inst4~combout $end
$var wire 1 d" inst2|inst2|inst8~0_combout $end
$var wire 1 e" inst2|inst2|inst8~1_combout $end
$var wire 1 f" inst2|inst|inst10|inst~combout $end
$var wire 1 g" inst2|inst|inst8~0_combout $end
$var wire 1 h" inst2|inst|inst8~1_combout $end
$var wire 1 i" inst2|inst7|inst2~combout $end
$var wire 1 j" inst2|inst7|inst8~0_combout $end
$var wire 1 k" inst2|inst7|inst10|inst~combout $end
$var wire 1 l" inst2|inst7|inst8~1_combout $end
$var wire 1 m" inst2|inst8|inst10|inst5~combout $end
$var wire 1 n" inst2|inst8|inst~combout $end
$var wire 1 o" inst2|inst8|inst8~0_combout $end
$var wire 1 p" inst2|inst8|inst8~1_combout $end
$var wire 1 q" inst2|inst5|inst8~0_combout $end
$var wire 1 r" inst2|inst5|inst~combout $end
$var wire 1 s" inst2|inst5|inst10|inst~combout $end
$var wire 1 t" inst2|inst5|inst8~1_combout $end
$var wire 1 u" inst2|inst6|inst10|inst~combout $end
$var wire 1 v" inst2|inst6|inst~combout $end
$var wire 1 w" inst2|inst6|inst8~0_combout $end
$var wire 1 x" inst2|inst6|inst8~1_combout $end
$var wire 1 y" inst|inst3|inst~combout $end
$var wire 1 z" inst|inst3|inst8~2_combout $end
$var wire 1 {" inst|inst3|inst8~3_combout $end
$var wire 1 |" inst|inst4|inst10|inst~combout $end
$var wire 1 }" inst|inst4|inst2~combout $end
$var wire 1 ~" inst|inst4|inst~combout $end
$var wire 1 !# inst|inst4|inst8~0_combout $end
$var wire 1 "# inst|inst2|inst2~combout $end
$var wire 1 ## inst|inst|inst10|inst4~combout $end
$var wire 1 $# inst|inst2|inst10|inst4~combout $end
$var wire 1 %# inst|inst4|inst8~1_combout $end
$var wire 1 &# inst|inst2|inst10|inst~combout $end
$var wire 1 '# inst|inst2|inst8~0_combout $end
$var wire 1 (# inst|inst2|inst8~1_combout $end
$var wire 1 )# inst|inst|inst~combout $end
$var wire 1 *# inst|inst|inst10|inst~combout $end
$var wire 1 +# inst|inst|inst8~0_combout $end
$var wire 1 ,# inst|inst|inst8~1_combout $end
$var wire 1 -# inst|inst8|inst2~combout $end
$var wire 1 .# inst|inst8|inst10|inst4~combout $end
$var wire 1 /# inst|inst7|inst2~combout $end
$var wire 1 0# inst|inst7|inst8~0_combout $end
$var wire 1 1# inst|inst7|inst10|inst~combout $end
$var wire 1 2# inst|inst7|inst8~1_combout $end
$var wire 1 3# inst|inst8|inst8~0_combout $end
$var wire 1 4# inst|inst8|inst10|inst5~combout $end
$var wire 1 5# inst|inst8|inst8~1_combout $end
$var wire 1 6# inst|inst5|inst8~0_combout $end
$var wire 1 7# inst|inst5|inst8~1_combout $end
$var wire 1 8# inst|inst6|inst10|inst5~combout $end
$var wire 1 9# inst|inst6|inst8~0_combout $end
$var wire 1 :# inst|inst6|inst8~1_combout $end
$var wire 1 ;# inst1|inst18[30]~48_combout $end
$var wire 1 <# inst1|inst18[27]~54_combout $end
$var wire 1 =# inst1|inst18[22]~14_combout $end
$var wire 1 ># inst1|inst18[22]~15_combout $end
$var wire 1 ?# inst1|inst18[23]~10_combout $end
$var wire 1 @# inst1|inst18[24]~17_combout $end
$var wire 1 A# inst1|inst18[19]~44_combout $end
$var wire 1 B# inst1|inst18[19]~45_combout $end
$var wire 1 C# inst1|inst18[20]~46_combout $end
$var wire 1 D# inst1|inst18[20]~47_combout $end
$var wire 1 E# inst1|inst18[17]~42_combout $end
$var wire 1 F# inst1|inst18[17]~43_combout $end
$var wire 1 G# inst1|inst18[18]~23_combout $end
$var wire 1 H# inst1|inst18[16]~40_combout $end
$var wire 1 I# inst1|inst18[16]~41_combout $end
$var wire 1 J# inst1|inst9~5_combout $end
$var wire 1 K# inst1|inst9~6_combout $end
$var wire 1 L# inst1|inst9~7_combout $end
$var wire 1 M# inst1|inst9~8_combout $end
$var wire 1 N# inst1|inst18[28]~9_combout $end
$var wire 1 O# inst1|inst18[28]~52_combout $end
$var wire 1 P# inst1|inst9~9_combout $end
$var wire 1 Q# inst1|inst18[29]~49_combout $end
$var wire 1 R# inst1|inst18[29]~50_combout $end
$var wire 1 S# inst1|inst18[29]~51_combout $end
$var wire 1 T# inst1|inst9~10_combout $end
$var wire 1 U# inst1|inst18[26]~11_combout $end
$var wire 1 V# inst1|inst18[26]~53_combout $end
$var wire 1 W# inst1|inst18[25]~13_combout $end
$var wire 1 X# inst1|inst18[25]~55_combout $end
$var wire 1 Y# inst1|inst18[23]~18_combout $end
$var wire 1 Z# inst1|inst18[23]~19_combout $end
$var wire 1 [# inst1|inst18[21]~20_combout $end
$var wire 1 \# inst1|inst18[21]~21_combout $end
$var wire 1 ]# inst1|inst18[15]~24_combout $end
$var wire 1 ^# inst1|inst18[15]~25_combout $end
$var wire 1 _# inst1|inst18[14]~38_combout $end
$var wire 1 `# inst1|inst18[14]~39_combout $end
$var wire 1 a# inst1|inst18[13]~36_combout $end
$var wire 1 b# inst1|inst18[13]~37_combout $end
$var wire 1 c# inst1|inst18[12]~26_combout $end
$var wire 1 d# inst1|inst18[12]~27_combout $end
$var wire 1 e# inst1|inst18[11]~34_combout $end
$var wire 1 f# inst1|inst18[11]~35_combout $end
$var wire 1 g# inst1|inst18[10]~32_combout $end
$var wire 1 h# inst1|inst18[10]~33_combout $end
$var wire 1 i# inst1|inst18[9]~28_combout $end
$var wire 1 j# inst1|inst18[9]~29_combout $end
$var wire 1 k# inst1|inst18[8]~30_combout $end
$var wire 1 l# inst1|inst18[8]~31_combout $end
$var wire 1 m# inst1|inst18 [31] $end
$var wire 1 n# inst1|inst18 [30] $end
$var wire 1 o# inst1|inst18 [29] $end
$var wire 1 p# inst1|inst18 [28] $end
$var wire 1 q# inst1|inst18 [27] $end
$var wire 1 r# inst1|inst18 [26] $end
$var wire 1 s# inst1|inst18 [25] $end
$var wire 1 t# inst1|inst18 [24] $end
$var wire 1 u# inst1|inst18 [23] $end
$var wire 1 v# inst1|inst18 [22] $end
$var wire 1 w# inst1|inst18 [21] $end
$var wire 1 x# inst1|inst18 [20] $end
$var wire 1 y# inst1|inst18 [19] $end
$var wire 1 z# inst1|inst18 [18] $end
$var wire 1 {# inst1|inst18 [17] $end
$var wire 1 |# inst1|inst18 [16] $end
$var wire 1 }# inst1|inst18 [15] $end
$var wire 1 ~# inst1|inst18 [14] $end
$var wire 1 !$ inst1|inst18 [13] $end
$var wire 1 "$ inst1|inst18 [12] $end
$var wire 1 #$ inst1|inst18 [11] $end
$var wire 1 $$ inst1|inst18 [10] $end
$var wire 1 %$ inst1|inst18 [9] $end
$var wire 1 &$ inst1|inst18 [8] $end
$var wire 1 '$ inst1|inst18 [7] $end
$var wire 1 ($ inst1|inst18 [6] $end
$var wire 1 )$ inst1|inst18 [5] $end
$var wire 1 *$ inst1|inst18 [4] $end
$var wire 1 +$ inst1|inst18 [3] $end
$var wire 1 ,$ inst1|inst18 [2] $end
$var wire 1 -$ inst1|inst18 [1] $end
$var wire 1 .$ inst1|inst18 [0] $end
$var wire 1 /$ MIR~combout [35] $end
$var wire 1 0$ MIR~combout [34] $end
$var wire 1 1$ MIR~combout [33] $end
$var wire 1 2$ MIR~combout [32] $end
$var wire 1 3$ MIR~combout [31] $end
$var wire 1 4$ MIR~combout [30] $end
$var wire 1 5$ MIR~combout [29] $end
$var wire 1 6$ MIR~combout [28] $end
$var wire 1 7$ MIR~combout [27] $end
$var wire 1 8$ MIR~combout [26] $end
$var wire 1 9$ MIR~combout [25] $end
$var wire 1 :$ MIR~combout [24] $end
$var wire 1 ;$ MIR~combout [23] $end
$var wire 1 <$ MIR~combout [22] $end
$var wire 1 =$ MIR~combout [21] $end
$var wire 1 >$ MIR~combout [20] $end
$var wire 1 ?$ MIR~combout [19] $end
$var wire 1 @$ MIR~combout [18] $end
$var wire 1 A$ MIR~combout [17] $end
$var wire 1 B$ MIR~combout [16] $end
$var wire 1 C$ MIR~combout [15] $end
$var wire 1 D$ MIR~combout [14] $end
$var wire 1 E$ MIR~combout [13] $end
$var wire 1 F$ MIR~combout [12] $end
$var wire 1 G$ MIR~combout [11] $end
$var wire 1 H$ MIR~combout [10] $end
$var wire 1 I$ MIR~combout [9] $end
$var wire 1 J$ MIR~combout [8] $end
$var wire 1 K$ MIR~combout [7] $end
$var wire 1 L$ MIR~combout [6] $end
$var wire 1 M$ MIR~combout [5] $end
$var wire 1 N$ MIR~combout [4] $end
$var wire 1 O$ MIR~combout [3] $end
$var wire 1 P$ MIR~combout [2] $end
$var wire 1 Q$ MIR~combout [1] $end
$var wire 1 R$ MIR~combout [0] $end
$var wire 1 S$ B~combout [31] $end
$var wire 1 T$ B~combout [30] $end
$var wire 1 U$ B~combout [29] $end
$var wire 1 V$ B~combout [28] $end
$var wire 1 W$ B~combout [27] $end
$var wire 1 X$ B~combout [26] $end
$var wire 1 Y$ B~combout [25] $end
$var wire 1 Z$ B~combout [24] $end
$var wire 1 [$ B~combout [23] $end
$var wire 1 \$ B~combout [22] $end
$var wire 1 ]$ B~combout [21] $end
$var wire 1 ^$ B~combout [20] $end
$var wire 1 _$ B~combout [19] $end
$var wire 1 `$ B~combout [18] $end
$var wire 1 a$ B~combout [17] $end
$var wire 1 b$ B~combout [16] $end
$var wire 1 c$ B~combout [15] $end
$var wire 1 d$ B~combout [14] $end
$var wire 1 e$ B~combout [13] $end
$var wire 1 f$ B~combout [12] $end
$var wire 1 g$ B~combout [11] $end
$var wire 1 h$ B~combout [10] $end
$var wire 1 i$ B~combout [9] $end
$var wire 1 j$ B~combout [8] $end
$var wire 1 k$ B~combout [7] $end
$var wire 1 l$ B~combout [6] $end
$var wire 1 m$ B~combout [5] $end
$var wire 1 n$ B~combout [4] $end
$var wire 1 o$ B~combout [3] $end
$var wire 1 p$ B~combout [2] $end
$var wire 1 q$ B~combout [1] $end
$var wire 1 r$ B~combout [0] $end
$var wire 1 s$ A~combout [31] $end
$var wire 1 t$ A~combout [30] $end
$var wire 1 u$ A~combout [29] $end
$var wire 1 v$ A~combout [28] $end
$var wire 1 w$ A~combout [27] $end
$var wire 1 x$ A~combout [26] $end
$var wire 1 y$ A~combout [25] $end
$var wire 1 z$ A~combout [24] $end
$var wire 1 {$ A~combout [23] $end
$var wire 1 |$ A~combout [22] $end
$var wire 1 }$ A~combout [21] $end
$var wire 1 ~$ A~combout [20] $end
$var wire 1 !% A~combout [19] $end
$var wire 1 "% A~combout [18] $end
$var wire 1 #% A~combout [17] $end
$var wire 1 $% A~combout [16] $end
$var wire 1 %% A~combout [15] $end
$var wire 1 &% A~combout [14] $end
$var wire 1 '% A~combout [13] $end
$var wire 1 (% A~combout [12] $end
$var wire 1 )% A~combout [11] $end
$var wire 1 *% A~combout [10] $end
$var wire 1 +% A~combout [9] $end
$var wire 1 ,% A~combout [8] $end
$var wire 1 -% A~combout [7] $end
$var wire 1 .% A~combout [6] $end
$var wire 1 /% A~combout [5] $end
$var wire 1 0% A~combout [4] $end
$var wire 1 1% A~combout [3] $end
$var wire 1 2% A~combout [2] $end
$var wire 1 3% A~combout [1] $end
$var wire 1 4% A~combout [0] $end
$upscope $end
$upscope $end
$enddefinitions $end
#0
$dumpvars
b101 !
b1111 "
b0 #
xC
xB
xA
x@
x?
x>
x=
x<
x;
x:
x9
x8
x7
x6
x5
x4
x3
x2
x1
x0
x/
x.
x-
x,
x+
x*
x)
x(
x'
x&
x%
x$
xD
xE
xe
xd
xc
xb
xa
x`
x_
x^
x]
x\
x[
xZ
xY
xX
xW
xV
xU
xT
xS
xR
xQ
xP
xO
xN
xM
xL
xK
xJ
xI
xH
xG
xF
xf
xg
0h
1i
xj
1k
1l
1m
xn
xo
xp
xq
xr
xs
xt
xu
xv
xw
xx
xy
xz
x{
x|
x}
x~
x!!
x"!
x#!
x$!
x%!
x&!
x'!
x(!
x)!
x*!
x+!
x,!
x-!
x.!
x/!
x0!
x1!
x2!
x3!
x4!
x5!
x6!
x7!
x8!
x9!
x:!
x;!
x<!
x=!
x>!
x?!
x@!
xA!
xB!
xC!
xD!
xE!
xF!
xG!
xH!
xI!
xJ!
xK!
xL!
xM!
xN!
xO!
xP!
xQ!
xR!
xS!
xT!
xU!
xV!
xW!
xX!
xY!
xZ!
x[!
x\!
x]!
x^!
x_!
x`!
xa!
xb!
xc!
xd!
xe!
xf!
xg!
xh!
xi!
xj!
xk!
xl!
xm!
xn!
xo!
xp!
xq!
xr!
xs!
xt!
xu!
xv!
xw!
xx!
xy!
xz!
x{!
x|!
x}!
x~!
x!"
x""
x#"
x$"
x%"
x&"
x'"
x("
x)"
x*"
x+"
x,"
x-"
x."
x/"
x0"
x1"
x2"
x3"
x4"
x5"
x6"
x7"
x8"
x9"
x:"
x;"
x<"
x="
x>"
x?"
x@"
xA"
xB"
xC"
xD"
xE"
xF"
xG"
xH"
xI"
xJ"
xK"
xL"
xM"
xN"
xO"
xP"
xQ"
xR"
xS"
xT"
xU"
xV"
xW"
xX"
xY"
xZ"
x["
x\"
x]"
x^"
x_"
x`"
xa"
xb"
xc"
xd"
xe"
xf"
xg"
xh"
xi"
xj"
xk"
xl"
xm"
xn"
xo"
xp"
xq"
xr"
xs"
xt"
xu"
xv"
xw"
xx"
xy"
xz"
x{"
x|"
x}"
x~"
x!#
x"#
x##
x$#
x%#
x&#
x'#
x(#
x)#
x*#
x+#
x,#
x-#
x.#
x/#
x0#
x1#
x2#
x3#
x4#
x5#
x6#
x7#
x8#
x9#
x:#
x;#
x<#
x=#
x>#
x?#
x@#
xA#
xB#
xC#
xD#
xE#
xF#
xG#
xH#
xI#
xJ#
xK#
xL#
xM#
xN#
xO#
xP#
xQ#
xR#
xS#
xT#
xU#
xV#
xW#
xX#
xY#
xZ#
x[#
x\#
x]#
x^#
x_#
x`#
xa#
xb#
xc#
xd#
xe#
xf#
xg#
xh#
xi#
xj#
xk#
xl#
x.$
x-$
x,$
x+$
x*$
x)$
x($
x'$
z&$
z%$
z$$
z#$
z"$
z!$
z~#
z}#
z|#
z{#
zz#
zy#
zx#
zw#
zv#
zu#
zt#
zs#
zr#
zq#
zp#
zo#
xn#
zm#
zR$
zQ$
zP$
zO$
zN$
zM$
zL$
zK$
zJ$
zI$
zH$
zG$
zF$
zE$
zD$
zC$
0B$
0A$
0@$
0?$
0>$
0=$
0<$
0;$
z:$
z9$
z8$
z7$
z6$
z5$
z4$
z3$
z2$
z1$
z0$
z/$
1r$
1q$
1p$
1o$
0n$
0m$
0l$
0k$
0j$
0i$
0h$
0g$
0f$
0e$
0d$
0c$
0b$
0a$
0`$
0_$
0^$
0]$
0\$
0[$
0Z$
0Y$
0X$
0W$
0V$
0U$
0T$
0S$
14%
03%
12%
01%
00%
0/%
0.%
0-%
0,%
0+%
0*%
0)%
0(%
0'%
0&%
0%%
0$%
0#%
0"%
0!%
0~$
0}$
0|$
0{$
0z$
0y$
0x$
0w$
0v$
0u$
0t$
0s$
$end
#6016
09!
#6019
07!
#6035
0'!
#6036
0!"
#6338
0s!
#6372
0#"
#6381
0q!
#6390
0Q"
#6391
01!
#6393
0r"
#6400
0O!
#6404
0T!
#6434
0r
#6460
0M"
#6628
0n"
#6651
0e!
#6652
0V!
#6669
0v"
#6684
0("
#6797
04!
#6832
0S"
#6842
0Q#
#6849
0t
#6931
0H"
#6975
0N"
#6977
0+!
#6981
0;"
0G"
#6983
0A#
#6985
0E#
#7000
03!
#7006
0C"
#7012
0W!
#7016
0y"
#7022
0R!
#7035
0?"
#7036
0u!
#7047
0~"
#7050
0["
#7059
0)#
#7073
0@!
#7158
0."
#7164
0L!
#7173
0y!
#7178
00"
#7277
0)"
#7279
0C#
0[#
#7281
0c#
#7311
0o
#7317
0D!
#7321
05!
#7324
0$!
#7326
0w
0x
#7327
0Q!
#7328
06!
#7350
0k#
#7352
0i#
#7370
0U"
#7375
05"
#7390
0H!
#7401
0R"
#7413
0`!
#7422
0_!
#7433
0c!
#7434
0K!
#7453
02!
#7466
0N!
#7487
0b!
#7501
0,"
#7506
0=#
#7559
0g#
#7561
0e#
#7570
0J"
#7592
0>!
#7604
0C!
#7605
0p!
#7632
0~!
#7635
0$"
#7640
0]#
#7644
0&!
#7647
0_#
0a#
#7656
06"
#7657
0{!
#7658
02"
#7667
0n
#7668
0<!
#7724
0%"
#7767
08"
#7771
09"
#7772
09#
#7773
06#
#7797
01"
#7812
0I!
#7814
0T"
#7825
0Y!
#7829
0H#
#7856
0y
#7858
0\!
#7872
0s"
#7891
0g"
#7908
0{"
#7912
0/#
#7913
0v!
#7914
0X"
#7922
0?#
#7929
0B!
#7944
0&#
#7945
0}"
#7946
0"#
#7948
0|"
#7962
0[!
#7965
0U!
0k"
#7968
0i"
#8014
0"!
#8070
0~
#8076
0.#
04#
#8081
0Y"
#8122
0f!
#8146
0q"
#8159
0+#
#8160
0t!
#8164
0s
#8175
0<"
#8178
0v
#8213
0!#
0'#
#8216
0d"
#8229
0w"
#8240
0=!
#8250
0j"
#8251
0L"
0(!
#8255
0*#
#8257
0]"
#8258
0O"
#8272
0I"
#8284
0-#
#8288
0u
#8298
08!
0@"
#8301
0K"
#8306
0A!
#8354
0:!
0A"
#8364
08#
#8371
0^!
#8375
0""
#8391
0*"
#8403
0V"
#8412
03"
#8478
0P!
#8479
0}
