simulation/qsim/MIC1.msim.vcd
$comment
	File created using the following command:
		vcd file MIC1.msim.vcd -direction
$end
$date
	Sat Aug 24 19:23:23 2024
$end
$version
	ModelSim Version 10.1d
$end
$timescale
	1ps
$end
$scope module LV_vlg_vec_tst $end
$var reg 1 ! CLOCK $end
$var reg 32 " IN_C [31:0] $end
$var reg 1 # LOAD $end
$var reg 36 $ MIR [35:0] $end
$var wire 1 % OUT_B [31] $end
$var wire 1 & OUT_B [30] $end
$var wire 1 ' OUT_B [29] $end
$var wire 1 ( OUT_B [28] $end
$var wire 1 ) OUT_B [27] $end
$var wire 1 * OUT_B [26] $end
$var wire 1 + OUT_B [25] $end
$var wire 1 , OUT_B [24] $end
$var wire 1 - OUT_B [23] $end
$var wire 1 . OUT_B [22] $end
$var wire 1 / OUT_B [21] $end
$var wire 1 0 OUT_B [20] $end
$var wire 1 1 OUT_B [19] $end
$var wire 1 2 OUT_B [18] $end
$var wire 1 3 OUT_B [17] $end
$var wire 1 4 OUT_B [16] $end
$var wire 1 5 OUT_B [15] $end
$var wire 1 6 OUT_B [14] $end
$var wire 1 7 OUT_B [13] $end
$var wire 1 8 OUT_B [12] $end
$var wire 1 9 OUT_B [11] $end
$var wire 1 : OUT_B [10] $end
$var wire 1 ; OUT_B [9] $end
$var wire 1 < OUT_B [8] $end
$var wire 1 = OUT_B [7] $end
$var wire 1 > OUT_B [6] $end
$var wire 1 ? OUT_B [5] $end
$var wire 1 @ OUT_B [4] $end
$var wire 1 A OUT_B [3] $end
$var wire 1 B OUT_B [2] $end
$var wire 1 C OUT_B [1] $end
$var wire 1 D OUT_B [0] $end
$var wire 1 E sampler $end
$scope module i1 $end
$var wire 1 F gnd $end
$var wire 1 G vcc $end
$var wire 1 H unknown $end
$var tri1 1 I devclrn $end
$var tri1 1 J devpor $end
$var tri1 1 K devoe $end
$var wire 1 L CLOCK~combout $end
$var wire 1 M inst|inst12~combout $end
$var wire 1 N inst|inst12~clkctrl_outclk $end
$var wire 1 O inst|inst5|inst~feeder_combout $end
$var wire 1 P LOAD~combout $end
$var wire 1 Q LOAD~clkctrl_outclk $end
$var wire 1 R inst|inst5|inst~regout $end
$var wire 1 S inst4~0_combout $end
$var wire 1 T inst|inst5|inst1~feeder_combout $end
$var wire 1 U inst|inst5|inst1~regout $end
$var wire 1 V inst|inst5|inst2~feeder_combout $end
$var wire 1 W inst|inst5|inst2~regout $end
$var wire 1 X inst|inst5|inst3~feeder_combout $end
$var wire 1 Y inst|inst5|inst3~regout $end
$var wire 1 Z inst|inst4|inst~feeder_combout $end
$var wire 1 [ inst|inst4|inst~regout $end
$var wire 1 \ inst|inst4|inst1~feeder_combout $end
$var wire 1 ] inst|inst4|inst1~regout $end
$var wire 1 ^ inst|inst4|inst2~feeder_combout $end
$var wire 1 _ inst|inst4|inst2~regout $end
$var wire 1 ` inst|inst4|inst3~regout $end
$var wire 1 a inst|inst6|inst~regout $end
$var wire 1 b inst|inst6|inst1~feeder_combout $end
$var wire 1 c inst|inst6|inst1~regout $end
$var wire 1 d inst|inst6|inst2~feeder_combout $end
$var wire 1 e inst|inst6|inst2~regout $end
$var wire 1 f inst|inst6|inst3~feeder_combout $end
$var wire 1 g inst|inst6|inst3~regout $end
$var wire 1 h inst|inst7|inst~feeder_combout $end
$var wire 1 i inst|inst7|inst~regout $end
$var wire 1 j inst|inst7|inst1~feeder_combout $end
$var wire 1 k inst|inst7|inst1~regout $end
$var wire 1 l inst|inst7|inst2~feeder_combout $end
$var wire 1 m inst|inst7|inst2~regout $end
$var wire 1 n inst|inst7|inst3~feeder_combout $end
$var wire 1 o inst|inst7|inst3~regout $end
$var wire 1 p inst|inst|inst~regout $end
$var wire 1 q inst|inst|inst1~feeder_combout $end
$var wire 1 r inst|inst|inst1~regout $end
$var wire 1 s inst|inst|inst2~feeder_combout $end
$var wire 1 t inst|inst|inst2~regout $end
$var wire 1 u inst|inst|inst3~feeder_combout $end
$var wire 1 v inst|inst|inst3~regout $end
$var wire 1 w inst|inst1|inst~feeder_combout $end
$var wire 1 x inst|inst1|inst~regout $end
$var wire 1 y inst|inst1|inst1~feeder_combout $end
$var wire 1 z inst|inst1|inst1~regout $end
$var wire 1 { inst|inst1|inst2~feeder_combout $end
$var wire 1 | inst|inst1|inst2~regout $end
$var wire 1 } inst|inst1|inst3~feeder_combout $end
$var wire 1 ~ inst|inst1|inst3~regout $end
$var wire 1 !! inst|inst2|inst~0_combout $end
$var wire 1 "! inst|inst2|inst~regout $end
$var wire 1 #! inst|inst2|inst1~feeder_combout $end
$var wire 1 $! inst|inst2|inst1~regout $end
$var wire 1 %! inst|inst2|inst2~feeder_combout $end
$var wire 1 &! inst|inst2|inst2~regout $end
$var wire 1 '! inst|inst2|inst3~0_combout $end
$var wire 1 (! inst|inst2|inst3~regout $end
$var wire 1 )! inst|inst3|inst~feeder_combout $end
$var wire 1 *! inst|inst3|inst~regout $end
$var wire 1 +! inst|inst3|inst1~feeder_combout $end
$var wire 1 ,! inst|inst3|inst1~regout $end
$var wire 1 -! inst|inst3|inst2~feeder_combout $end
$var wire 1 .! inst|inst3|inst2~regout $end
$var wire 1 /! inst|inst3|inst3~feeder_combout $end
$var wire 1 0! inst|inst3|inst3~regout $end
$var wire 1 1! IN_C~combout [31] $end
$var wire 1 2! IN_C~combout [30] $end
$var wire 1 3! IN_C~combout [29] $end
$var wire 1 4! IN_C~combout [28] $end
$var wire 1 5! IN_C~combout [27] $end
$var wire 1 6! IN_C~combout [26] $end
$var wire 1 7! IN_C~combout [25] $end
$var wire 1 8! IN_C~combout [24] $end
$var wire 1 9! IN_C~combout [23] $end
$var wire 1 :! IN_C~combout [22] $end
$var wire 1 ;! IN_C~combout [21] $end
$var wire 1 <! IN_C~combout [20] $end
$var wire 1 =! IN_C~combout [19] $end
$var wire 1 >! IN_C~combout [18] $end
$var wire 1 ?! IN_C~combout [17] $end
$var wire 1 @! IN_C~combout [16] $end
$var wire 1 A! IN_C~combout [15] $end
$var wire 1 B! IN_C~combout [14] $end
$var wire 1 C! IN_C~combout [13] $end
$var wire 1 D! IN_C~combout [12] $end
$var wire 1 E! IN_C~combout [11] $end
$var wire 1 F! IN_C~combout [10] $end
$var wire 1 G! IN_C~combout [9] $end
$var wire 1 H! IN_C~combout [8] $end
$var wire 1 I! IN_C~combout [7] $end
$var wire 1 J! IN_C~combout [6] $end
$var wire 1 K! IN_C~combout [5] $end
$var wire 1 L! IN_C~combout [4] $end
$var wire 1 M! IN_C~combout [3] $end
$var wire 1 N! IN_C~combout [2] $end
$var wire 1 O! IN_C~combout [1] $end
$var wire 1 P! IN_C~combout [0] $end
$var wire 1 Q! MIR~combout [35] $end
$var wire 1 R! MIR~combout [34] $end
$var wire 1 S! MIR~combout [33] $end
$var wire 1 T! MIR~combout [32] $end
$var wire 1 U! MIR~combout [31] $end
$var wire 1 V! MIR~combout [30] $end
$var wire 1 W! MIR~combout [29] $end
$var wire 1 X! MIR~combout [28] $end
$var wire 1 Y! MIR~combout [27] $end
$var wire 1 Z! MIR~combout [26] $end
$var wire 1 [! MIR~combout [25] $end
$var wire 1 \! MIR~combout [24] $end
$var wire 1 ]! MIR~combout [23] $end
$var wire 1 ^! MIR~combout [22] $end
$var wire 1 _! MIR~combout [21] $end
$var wire 1 `! MIR~combout [20] $end
$var wire 1 a! MIR~combout [19] $end
$var wire 1 b! MIR~combout [18] $end
$var wire 1 c! MIR~combout [17] $end
$var wire 1 d! MIR~combout [16] $end
$var wire 1 e! MIR~combout [15] $end
$var wire 1 f! MIR~combout [14] $end
$var wire 1 g! MIR~combout [13] $end
$var wire 1 h! MIR~combout [12] $end
$var wire 1 i! MIR~combout [11] $end
$var wire 1 j! MIR~combout [10] $end
$var wire 1 k! MIR~combout [9] $end
$var wire 1 l! MIR~combout [8] $end
$var wire 1 m! MIR~combout [7] $end
$var wire 1 n! MIR~combout [6] $end
$var wire 1 o! MIR~combout [5] $end
$var wire 1 p! MIR~combout [4] $end
$var wire 1 q! MIR~combout [3] $end
$var wire 1 r! MIR~combout [2] $end
$var wire 1 s! MIR~combout [1] $end
$var wire 1 t! MIR~combout [0] $end
$upscope $end
$upscope $end
$enddefinitions $end
#0
$dumpvars
0!
b0 "
1#
b100000000101 $
xD
xC
xB
xA
x@
x?
x>
x=
x<
x;
x:
x9
x8
x7
x6
x5
x4
x3
x2
x1
x0
x/
x.
x-
x,
x+
x*
x)
x(
x'
x&
x%
xE
0F
1G
xH
1I
1J
1K
0L
xM
xN
xO
1P
xQ
xR
xS
xT
xU
xV
xW
xX
xY
xZ
x[
x\
x]
x^
x_
x`
xa
xb
xc
xd
xe
xf
xg
xh
xi
xj
xk
xl
xm
xn
xo
xp
xq
xr
xs
xt
xu
xv
xw
xx
xy
xz
x{
x|
x}
x~
x!!
x"!
x#!
x$!
x%!
x&!
x'!
x(!
x)!
x*!
x+!
x,!
x-!
x.!
x/!
x0!
0P!
0O!
0N!
0M!
0L!
0K!
0J!
0I!
0H!
0G!
0F!
0E!
0D!
0C!
0B!
0A!
0@!
0?!
0>!
0=!
0<!
0;!
0:!
09!
08!
07!
06!
05!
04!
03!
02!
01!
1t!
0s!
1r!
0q!
zp!
zo!
zn!
zm!
zl!
zk!
zj!
1i!
zh!
zg!
zf!
ze!
zd!
zc!
zb!
za!
z`!
z_!
z^!
z]!
z\!
z[!
zZ!
zY!
zX!
zW!
zV!
zU!
zT!
zS!
zR!
zQ!
$end
#135
1Q
#267
00!
0.!
0,!
0*!
0(!
0&!
0$!
0"!
0~
0|
0z
0x
0v
0t
0r
0p
0o
0m
0k
0i
0g
0e
0c
0a
0`
0_
0]
0[
0Y
0W
0U
0R
#1170
0M
#2099
0N
#5376
0^
0{
#5377
0\
#5450
1!!
#5454
0O
0f
#5455
0s
#5457
0j
0+!
#5458
0/!
#5466
0y
#5904
0u
#5905
0T
#5906
0d
0h
#5907
0V
0X
0Z
0w
0}
0)!
#5908
0b
0n
0-!
#5909
0l
0q
0#!
#6092
1'!
#6268
1S
#6295
0%!
#11042
0/
#11066
0,
#11403
0?
#11791
03
#11823
01
#11839
0<
#15811
05
#16177
08
#17166
0C
#17221
0.
#17665
0+
#17754
0&
#17764
0-
#18277
07
#18498
0(
#18620
0%
#18918
0'
#19490
06
#19678
0:
#19719
0*
#19755
0D
#20087
0A
#20156
0B
#20157
0>
#20255
09
#20609
1=
#20638
02
#20957
04
#20992
0)
#21469
00
#21478
0;
#21913
1@
#50000
1!
0E
#51090
1L
#52260
1M
#53189
1N
#55526
1"!
#55575
1(!
#59268
0=
#59717
0@
#65000
b1 "
1E
#65925
1P!
#71383
1/!
#100000
0!
0E
#101090
0L
#102260
0M
#103189
0N
#130000
b11 "
b10 "
1E
#130914
1O!
#130925
0P!
#136383
0/!
#136822
1-!
#150000
1!
0E
#151090
1L
#152260
1M
#153189
1N
#155591
1.!
#159704
1C
#195000
b11 "
1E
#195925
1P!
#200000
0!
0E
#201090
0L
#201383
1/!
#202260
0M
#203189
0N
#250000
1!
1E
#251090
1L
#252260
1M
#253189
1N
#255560
10!
#259331
1D
#260000
b111 "
b101 "
b100 "
0E
#260914
0O!
#260925
0P!
#260955
1N!
#266383
0/!
#266412
1+!
#266822
0-!
#300000
0!
1E
#301090
0L
#302260
0M
#303189
0N
#325000
b101 "
0E
#325925
1P!
#331383
1/!
#350000
1!
1E
#351090
1L
#352260
1M
#353189
1N
#355513
1,!
#355591
0.!
#359265
1B
#359704
0C
#390000
b111 "
b110 "
0E
#390914
1O!
#390925
0P!
#396383
0/!
#396822
1-!
#400000
0!
1E
#401090
0L
#402260
0M
#403189
0N
#450000
1!
0E
#451090
1L
#452260
1M
#453189
1N
#455000
b111 "
1E
#455560
00!
#455591
1.!
#455925
1P!
#459331
0D
#459704
1C
#461383
1/!
#500000
0!
0E
#501090
0L
#502260
0M
#503189
0N
#520000
b1111 "
b1011 "
b1001 "
b1000 "
1E
#520904
1M!
#520914
0O!
#520925
0P!
#520955
0N!
#526383
0/!
#526412
0+!
#526811
1)!
#526822
0-!
#550000
1!
0E
#551090
1L
#552260
1M
#553189
1N
#555513
0,!
#555591
0.!
#555592
1*!
#559265
0B
#559697
1A
#559704
0C
#585000
b1001 "
1E
#585925
1P!
#591383
1/!
#600000
0!
0E
#601090
0L
#602260
0M
#603189
0N
#640000
b100000001101 $
b100000001111 $
1E
#640904
1s!
#640914
1q!
#646815
0S
#650000
b1011 "
b1010 "
1!
0E
#650914
1O!
#650925
0P!
#651090
1L
#651150
z/
#651174
z,
#651511
z?
#651899
z3
#651931
z1
#651947
z<
#652260
1M
#653189
1N
#655560
10!
#655919
z5
#656285
z8
#656383
0/!
#656822
1-!
#657274
zC
#657329
z.
#657753
z+
#657862
z&
#657872
z-
#658365
z7
#658606
z(
#658708
z%
#659026
z'
#659331
1D
#659598
z6
#659766
z:
#659807
z*
#659843
zD
#660195
zA
#660244
zB
#660265
z>
#660363
z9
#660697
z=
#660726
z2
#661065
z4
#661100
z)
#661557
z0
#661566
z;
#662021
z@
#700000
0!
1E
#701090
0L
#702260
0M
#703189
0N
#715000
b1011 "
0E
#715925
1P!
#721383
1/!
#750000
1!
1E
#751090
1L
#752260
1M
#753189
1N
#755591
1.!
#780000
b1111 "
b100000001101 $
b1101 "
b1100 "
0E
#780904
0s!
#780914
0O!
#780925
0P!
#780955
1N!
#786383
0/!
#786412
1+!
#786822
0-!
#790000
b100000001001 $
1E
#790934
0r!
#800000
0!
0E
#801090
0L
#802260
0M
#803189
0N
#830000
b100000001101 $
1E
#830934
1r!
#845000
b1101 "
0E
#845925
1P!
#850000
1!
1E
#851090
1L
#851383
1/!
#852260
1M
#853189
1N
#855513
1,!
#855591
0.!
#860000
b100000001100 $
b100000001000 $
0E
#860934
0r!
0t!
#870000
b100000001001 $
b100000001101 $
1E
#870934
1r!
1t!
#900000
0!
0E
#901090
0L
#902260
0M
#903189
0N
#910000
b100000000101 $
b1111 "
b1110 "
1E
#910914
0q!
1O!
#910925
0P!
#916383
0/!
#916815
1S
#916822
1-!
#921589
0/
#921613
0,
#921950
0?
#922338
03
#922370
01
#922386
0<
#926358
05
#926724
08
#927713
0C
#927768
0.
#928212
0+
#928301
0&
#928311
0-
#928824
07
#929045
0(
#929167
0%
#929465
0'
#930037
06
#930225
0:
#930266
0*
#930302
1D
#930634
1A
#930703
1B
#930704
0>
#930802
09
#931156
0=
#931185
02
#931504
04
#931539
0)
#932016
00
#932025
0;
#932460
0@
#950000
1!
0E
#951090
1L
#952260
1M
#953189
1N
#955560
00!
#955591
1.!
#959331
0D
#959704
1C
#975000
b1111 "
1E
#975925
1P!
#981383
1/!
#1000000
0!
0E
#1001090
0L
#1002260
0M
#1003189
0N
#1040000
b11111 "
b10111 "
b10011 "
b10001 "
b10000 "
1E
#1040904
0M!
#1040914
0O!
#1040924
1L!
#1040925
0P!
#1040955
0N!
#1046383
0/!
#1046412
0+!
#1046811
0)!
#1046822
0-!
#1047016
0'!
#1050000
1!
0E
#1051090
1L
#1052260
1M
#1053189
1N
#1055513
0,!
#1055575
0(!
#1055591
0.!
#1055592
0*!
#1059265
0B
#1059697
0A
#1059704
0C
#1059717
1@
#1100000
0!
1E
#1101090
0L
#1102260
0M
#1103189
0N
#1105000
b10001 "
0E
#1105925
1P!
#1111383
1/!
#1150000
1!
1E
#1151090
1L
#1152260
1M
#1153189
1N
#1155560
10!
#1159331
1D
#1170000
b10011 "
b10010 "
0E
#1170914
1O!
#1170925
0P!
#1176383
0/!
#1176822
1-!
#1200000
0!
1E
#1201090
0L
#1202260
0M
#1203189
0N
#1235000
b10011 "
0E
#1235925
1P!
#1240000
0#
1E
#1241100
0P
#1241235
0Q
#1241383
1/!
#1243556
0"!
#1243590
00!
#1247298
1=
#1247361
0D
#1250000
1!
0E
#1251090
1L
#1252260
1M
#1253189
1N
#1260000
b101 $
1E
#1260924
0i!
#1267575
0M
#1268504
0N
#1300000
b10111 "
b10101 "
b10100 "
0!
0E
#1300914
0O!
#1300925
0P!
#1300955
1N!
#1301090
0L
#1306383
0/!
#1306412
1+!
#1306822
0-!
#1350000
b100000000101 $
1!
1E
#1350924
1i!
#1351090
1L
#1357575
1M
#1358504
1N
#1365000
b10101 "
0E
#1365925
1P!
#1371383
1/!
#1400000
1#
0!
1E
#1401090
0L
#1401100
1P
#1401235
1Q
#1402260
0M
#1403189
0N
#1430000
b10111 "
b10110 "
0E
#1430914
1O!
#1430925
0P!
#1436383
0/!
#1436822
1-!
#1450000
1!
1E
#1451090
1L
#1452260
1M
#1453189
1N
#1455513
1,!
#1455526
1"!
#1455591
1.!
#1459265
1B
#1459268
0=
#1459704
1C
#1495000
b10111 "
0E
#1495925
1P!
#1500000
0!
1E
#1501090
0L
#1501383
1/!
#1502260
0M
#1503189
0N
#1520000
0#
0E
#1521100
0P
#1521235
0Q
#1523543
0,!
#1523556
0"!
#1523621
0.!
#1527295
0B
#1527298
1=
#1527734
0C
#1550000
1!
1E
#1551090
1L
#1552260
1M
#1553189
1N
#1560000
b11111 "
b11011 "
b11001 "
b11000 "
0E
#1560904
1M!
#1560914
0O!
#1560925
0P!
#1560955
0N!
#1566383
0/!
#1566412
0+!
#1566811
1)!
#1566822
0-!
